State,Year,Rate,Sample Size
1,2000,62.8,580
2,2000,40.4,295
3,2000,51.1,595
4,2000,59.1,298
5,2000,59.0,1241
6,2000,49.0,342
7,2000,62.6,280
8,2000,53.3,301
9,2000,60.4,292
10,2000,47.8,807
11,2000,64.4,562
12,2000,61.5,277
13,2000,32.2,329
14,2000,36.6,617
15,2000,46.9,522
16,2000,45.4,282
17,2000,45.0,285
18,2000,50.3,311
19,2000,53.7,574
20,2000,44.2,299
21,2000,68.1,583
22,2000,64.6,565
23,2000,56.1,532
24,2000,53.6,286
25,2000,42.1,289
26,2000,48.8,275
27,2000,40.8,293
28,2000,53.1,290
29,2000,48.9,332
30,2000,55.1,323
31,2000,52.5,639
32,2000,49.7,311
33,2000,57.0,584
34,2000,68.7,313
35,2000,50.5,320
36,2000,47.0,830
37,2000,57.4,305
38,2000,62.3,294
39,2000,60.1,600
40,2000,67.5,341
41,2000,60.9,309
42,2000,33.4,303
43,2000,57.2,858
44,2000,52.5,1600
45,2000,39.3,302
46,2000,46.4,322
47,2000,57.1,275
48,2000,37.5,575
49,2000,49.0,277
50,2000,46.5,559
51,2000,47.0,328
1,2001,72.9,592
2,2001,50.5,292
3,2001,57.8,592
4,2001,62.5,392
5,2001,65.9,1266
6,2001,57.5,372
7,2001,67.7,286
8,2001,65.3,281
9,2001,62.0,312
10,2001,58.7,812
11,2001,74.4,598
12,2001,64.3,279
13,2001,45.7,329
14,2001,47.9,605
15,2001,47.3,562
16,2001,52.7,294
17,2001,52.3,271
18,2001,66.7,306
19,2001,53.5,577
20,2001,48.8,315
21,2001,67.4,635
22,2001,64.8,600
23,2001,60.7,604
24,2001,62.6,308
25,2001,53.9,286
26,2001,57.5,269
27,2001,54.5,295
28,2001,59.3,301
29,2001,53.4,298
30,2001,60.8,319
31,2001,58.8,640
32,2001,51.2,338
33,2001,63.9,591
34,2001,71.1,303
35,2001,56.7,320
36,2001,54.9,923
37,2001,64.0,317
38,2001,59.4,288
39,2001,66.9,568
40,2001,73.6,365
41,2001,67.5,296
42,2001,44.9,270
43,2001,66.6,917
44,2001,64.7,1596
45,2001,49.8,305
46,2001,51.5,334
47,2001,66.7,243
48,2001,45.5,600
49,2001,61.8,288
50,2001,58.0,605
51,2001,48.7,287
1,2002,73.3,525
2,2002,56.2,262
3,2002,59.0,558
4,2002,68.3,286
5,2002,67.1,1101
6,2002,56.1,255
7,2002,72.8,289
8,2002,69.7,297
9,2002,68.3,259
10,2002,66.4,848
11,2002,76.5,594
12,2002,69.1,292
13,2002,52.6,297
14,2002,58.1,562
15,2002,59.4,587
16,2002,58.2,283
17,2002,55.1,291
18,2002,63.6,272
19,2002,61.9,551
20,2002,62.1,258
21,2002,70.7,529
22,2002,78.0,593
23,2002,71.7,539
24,2002,61.5,282
25,2002,63.9,254
26,2002,60.1,271
27,2002,49.4,276
28,2002,64.3,282
29,2002,65.3,258
30,2002,66.2,278
31,2002,65.5,554
32,2002,59.1,259
33,2002,67.3,498
34,2002,69.7,259
35,2002,56.3,278
36,2002,63.5,859
37,2002,60.3,268
38,2002,60.3,283
39,2002,67.6,486
40,2002,80.7,269
41,2002,73.8,261
42,2002,62.0,282
43,2002,67.3,826
44,2002,65.0,1345
45,2002,61.4,274
46,2002,57.7,284
47,2002,64.8,272
48,2002,51.9,548
49,2002,65.8,256
50,2002,67.5,552
51,2002,54.1,268
1,2003,79.1,532
2,2003,72.9,278
3,2003,68.4,612
4,2003,74.5,253
5,2003,75.6,1074
6,2003,63.0,281
7,2003,89.1,279
8,2003,66.1,291
9,2003,71.9,266
10,2003,73.7,829
11,2003,74.6,565
12,2003,78.7,293
13,2003,61.4,253
14,2003,69.1,538
15,2003,62.3,534
16,2003,63.4,264
17,2003,62.8,248
18,2003,78.5,265
19,2003,64.7,557
20,2003,68.6,277
21,2003,77.4,550
22,2003,82.5,567
23,2003,78.6,565
24,2003,70.7,268
25,2003,78.2,250
26,2003,74.4,290
27,2003,64.7,282
28,2003,67.8,276
29,2003,65.5,282
30,2003,76.1,280
31,2003,63.6,532
32,2003,70.8,253
33,2003,73.1,521
34,2003,77.3,276
35,2003,63.1,273
36,2003,71.0,756
37,2003,67.0,268
38,2003,70.3,262
39,2003,79.1,586
40,2003,79.8,232
41,2003,80.3,256
42,2003,60.0,256
43,2003,73.5,892
44,2003,69.8,1417
45,2003,70.1,269
46,2003,65.3,288
47,2003,79.8,280
48,2003,56.2,580
49,2003,63.2,228
50,2003,73.4,516
51,2003,56.8,270
1,2004,80.1,515
2,2004,66.4,299
3,2004,73.0,603
4,2004,80.6,270
5,2004,78.6,1144
6,2004,73.4,298
7,2004,84.8,237
8,2004,79.9,317
9,2004,79.5,326
10,2004,84.7,823
11,2004,82.0,549
12,2004,79.8,322
13,2004,70.4,293
14,2004,73.7,574
15,2004,68.2,514
16,2004,76.1,263
17,2004,65.8,260
18,2004,77.1,243
19,2004,70.1,568
20,2004,73.8,255
21,2004,76.0,546
22,2004,84.0,551
23,2004,79.2,626
24,2004,77.7,250
25,2004,80.4,285
26,2004,75.2,261
27,2004,64.5,280
28,2004,72.6,302
29,2004,65.1,317
30,2004,78.4,261
31,2004,74.4,566
32,2004,79.0,325
33,2004,78.0,522
34,2004,77.8,311
35,2004,71.0,294
36,2004,70.6,846
37,2004,71.4,314
38,2004,73.8,279
39,2004,81.8,572
40,2004,81.5,284
41,2004,77.2,251
42,2004,73.3,266
43,2004,79.1,818
44,2004,69.3,1454
45,2004,67.8,297
46,2004,66.6,290
47,2004,73.9,273
48,2004,66.5,548
49,2004,76.0,308
50,2004,78.0,549
51,2004,64.1,279
1,2005,81.7,419
2,2005,68.1,186
3,2005,74.9,432
4,2005,64.2,174
5,2005,74.0,816
6,2005,78.6,394
7,2005,81.5,212
8,2005,81.6,171
9,2005,72.1,296
10,2005,78.2,526
11,2005,82.4,503
12,2005,77.5,195
13,2005,68.4,227
14,2005,76.7,434
15,2005,69.9,212
16,2005,75.9,206
17,2005,72.0,255
18,2005,71.1,214
19,2005,74.1,556
20,2005,75.8,189
21,2005,78.6,433
22,2005,90.7,233
23,2005,80.6,430
24,2005,78.1,213
25,2005,79.1,267
26,2005,73.1,522
27,2005,65.4,260
28,2005,83.9,222
29,2005,63.2,347
30,2005,77.1,237
31,2005,72.4,505
32,2005,74.6,203
33,2005,74.4,433
34,2005,81.6,216
35,2005,78.7,270
36,2005,77.7,673
37,2005,72.3,279
38,2005,65.3,203
39,2005,77.3,399
40,2005,80.1,267
41,2005,75.6,276
42,2005,79.5,262
43,2005,80.0,713
44,2005,76.8,1199
45,2005,68.1,204
46,2005,62.9,173
47,2005,81.7,266
48,2005,66.3,397
49,2005,67.5,223
50,2005,77.1,417
51,2005,66.9,204
1,2006,79.2,269
2,2006,67.2,240
3,2006,70.5,518
4,2006,72.8,207
5,2006,78.5,1548
6,2006,75.6,219
7,2006,81.8,274
8,2006,80.3,235
9,2006,78.5,311
10,2006,79.3,921
11,2006,81.3,568
12,2006,78.8,230
13,2006,68.2,222
14,2006,74.0,540
15,2006,75.9,521
16,2006,78.9,226
17,2006,69.9,548
18,2006,79.8,267
19,2006,69.7,287
20,2006,75.7,204
21,2006,78.1,519
22,2006,83.6,512
23,2006,77.9,539
24,2006,77.6,236
25,2006,73.3,284
26,2006,80.6,275
27,2006,65.6,280
28,2006,74.8,250
29,2006,59.5,240
30,2006,76.2,245
31,2006,76.0,553
32,2006,71.5,506
33,2006,77.3,526
34,2006,81.9,241
35,2006,80.1,322
36,2006,74.9,570
37,2006,77.6,303
38,2006,73.6,220
39,2006,79.4,754
40,2006,80.5,303
41,2006,81.3,330
42,2006,73.9,296
43,2006,76.6,543
44,2006,74.7,1422
45,2006,78.1,226
46,2006,75.4,222
47,2006,77.4,280
48,2006,71.2,666
49,2006,68.3,248
50,2006,80.6,495
51,2006,63.4,283
1,2007,78.2,254
2,2007,70.1,222
3,2007,75.2,275
4,2007,72.3,347
5,2007,77.1,1000
6,2007,78.0,212
7,2007,86.8,252
8,2007,80.3,284
9,2007,81.6,301
10,2007,80.3,521
11,2007,79.6,313
12,2007,87.5,214
13,2007,65.6,183
14,2007,73.5,598
15,2007,74.0,698
16,2007,75.9,266
17,2007,76.0,242
18,2007,78.2,318
19,2007,77.0,281
20,2007,72.9,219
21,2007,91.3,313
22,2007,77.9,199
23,2007,78.8,270
24,2007,80.5,265
25,2007,77.1,245
26,2007,76.1,258
27,2007,65.3,269
28,2007,82.9,214
29,2007,63.1,232
30,2007,90.6,199
31,2007,80.5,260
32,2007,76.0,268
33,2007,77.8,542
34,2007,77.3,263
35,2007,77.2,249
36,2007,77.7,290
37,2007,78.5,270
38,2007,70.5,214
39,2007,78.8,552
40,2007,75.0,238
41,2007,79.5,364
42,2007,76.9,247
43,2007,78.7,271
44,2007,77.3,1432
45,2007,73.6,309
46,2007,67.3,210
47,2007,75.5,342
48,2007,69.0,447
49,2007,75.5,282
50,2007,77.1,253
51,2007,70.2,250
1,2008,75.1,339
2,2008,69.2,250
3,2008,76.4,275
4,2008,75.5,347
5,2008,78.7,950
6,2008,79.4,305
7,2008,69.8,227
8,2008,71.8,290
9,2008,77.6,269
10,2008,79.9,756
11,2008,71.9,299
12,2008,77.4,238
13,2008,60.4,282
14,2008,74.8,969
15,2008,75.5,301
16,2008,74.7,262
17,2008,76.7,303
18,2008,74.1,272
19,2008,81.9,340
20,2008,73.6,275
21,2008,80.2,610
22,2008,82.3,266
23,2008,74.5,282
24,2008,74.6,362
25,2008,75.8,377
26,2008,72.9,315
27,2008,59.2,268
28,2008,71.5,316
29,2008,67.8,246
30,2008,81.0,241
31,2008,68.5,322
32,2008,77.0,280
33,2008,73.3,529
34,2008,70.8,318
35,2008,69.8,269
36,2008,81.8,300
37,2008,71.7,261
38,2008,71.0,224
39,2008,77.7,609
40,2008,77.5,224
41,2008,78.4,345
42,2008,77.4,305
43,2008,81.2,335
44,2008,77.8,1377
45,2008,76.6,232
46,2008,64.5,232
47,2008,72.9,225
48,2008,73.5,430
49,2008,76.5,300
50,2008,79.6,222
51,2008,64.6,259
1,2009,54.4,249
2,2009,61.7,192
3,2009,40.0,317
4,2009,37.5,298
5,2009,55.5,386
6,2009,49.6,337
7,2009,37.2,229
8,2009,42.8,251
9,2009,55.6,355
10,2009,56.1,326
11,2009,51.1,297
12,2009,47.3,221
13,2009,35.8,207
14,2009,56.1,631
15,2009,45.7,708
16,2009,47.0,266
17,2009,52.6,218
18,2009,51.0,350
19,2009,56.9,266
20,2009,39.1,261
21,2009,49.8,485
22,2009,36.9,275
23,2009,54.8,331
24,2009,45.5,274
25,2009,62.3,339
26,2009,37.9,326
27,2009,42.5,262
28,2009,42.7,247
29,2009,41.9,320
30,2009,39.9,236
31,2009,46.7,353
32,2009,48.6,342
33,2009,51.2,452
34,2009,43.2,262
35,2009,46.9,206
36,2009,47.5,280
37,2009,59.1,306
38,2009,45.5,316
39,2009,41.4,509
40,2009,34.6,307
41,2009,38.9,257
42,2009,45.8,230
43,2009,49.0,339
44,2009,43.3,1266
45,2009,45.5,289
46,2009,25.3,331
47,2009,43.8,278
48,2009,38.1,472
49,2009,32.1,212
50,2009,43.4,317
51,2009,46.3,269
1,2010,62.6,336
2,2010,63.6,269
3,2010,59.0,299
4,2010,58.9,341
5,2010,55.7,411
6,2010,59.8,353
7,2010,61.4,247
8,2010,56.2,347
9,2010,67.3,260
10,2010,71.4,276
11,2010,53.1,306
12,2010,66.1,323
13,2010,45.7,271
14,2010,60.7,657
15,2010,59.7,322
16,2010,58.4,252
17,2010,57.7,270
18,2010,56.9,276
19,2010,60.0,226
20,2010,46.2,220
21,2010,57.4,306
22,2010,63.5,297
23,2010,66.5,270
24,2010,53.9,269
25,2010,65.3,323
26,2010,58.1,325
27,2010,53.3,264
28,2010,67.2,243
29,2010,48.6,229
30,2010,65.4,232
31,2010,54.8,332
32,2010,56.8,318
33,2010,52.1,454
34,2010,55.1,310
35,2010,66.0,253
36,2010,63.9,243
37,2010,54.4,326
38,2010,53.4,273
39,2010,63.5,562
40,2010,61.0,231
41,2010,56.8,300
42,2010,52.6,285
43,2010,66.7,277
44,2010,61.2,1379
45,2010,53.2,348
46,2010,41.4,235
47,2010,58.2,382
48,2010,57.2,427
49,2010,51.3,304
50,2010,70.4,296
51,2010,54.4,243
1,2011,71.0,399
2,2011,69.0,278
3,2011,64.2,279
4,2011,70.5,322
5,2011,72.5,407
6,2011,70.8,403
7,2011,76.2,386
8,2011,66.8,326
9,2011,77.3,369
10,2011,70.2,346
11,2011,71.8,359
12,2011,77.0,296
13,2011,59.3,282
14,2011,70.2,762
15,2011,69.3,382
16,2011,73.2,313
17,2011,75.3,359
18,2011,79.1,281
19,2011,74.1,307
20,2011,71.5,294
21,2011,76.9,657
22,2011,73.0,295
23,2011,68.0,386
24,2011,73.4,278
25,2011,70.2,292
26,2011,68.3,397
27,2011,64.6,328
28,2011,77.8,276
29,2011,65.4,306
30,2011,72.2,244
31,2011,71.5,372
32,2011,74.2,332
33,2011,64.4,586
34,2011,66.9,287
35,2011,80.5,247
36,2011,78.8,284
37,2011,69.2,303
38,2011,62.2,296
39,2011,71.5,671
40,2011,68.5,367
41,2011,66.5,269
42,2011,66.3,254
43,2011,72.0,297
44,2011,74.0,1683
45,2011,68.2,353
46,2011,69.6,276
47,2011,71.1,394
48,2011,68.7,295
49,2011,63.2,373
50,2011,72.8,307
51,2011,63.6,289
1,2012,72.5,265
2,2012,66.1,298
3,2012,69.4,272
4,2012,69.6,274
5,2012,71.8,316
6,2012,73.8,266
7,2012,80.0,281
8,2012,77.0,266
9,2012,80.8,320
10,2012,74.4,276
11,2012,77.9,284
12,2012,82.4,266
13,2012,64.5,289
14,2012,74.0,571
15,2012,65.3,252
16,2012,77.7,304
17,2012,66.4,297
18,2012,71.3,302
19,2012,72.7,304
20,2012,74.9,264
21,2012,73.0,311
22,2012,76.9,270
23,2012,72.2,283
24,2012,67.2,290
25,2012,78.7,303
26,2012,68.7,252
27,2012,70.9,310
28,2012,74.0,266
29,2012,67.5,287
30,2012,80.9,251
31,2012,74.8,285
32,2012,76.1,282
33,2012,70.3,554
34,2012,76.2,286
35,2012,74.5,258
36,2012,72.1,292
37,2012,64.7,282
38,2012,69.6,296
39,2012,71.7,594
40,2012,76.0,293
41,2012,75.8,299
42,2012,67.5,275
43,2012,74.6,303
44,2012,67.0,1736
45,2012,74.9,271
46,2012,65.5,257
47,2012,71.1,294
48,2012,69.3,256
49,2012,61.9,250
50,2012,77.2,277
51,2012,68.8,257
1,2013,77.5,166
2,2013,67.2,299
3,2013,68.6,254
4,2013,60.3,188
5,2013,76.4,283
6,2013,71.0,267
7,2013,82.1,213
8,2013,74.3,242
9,2013,79.3,223
10,2013,71.6,228
11,2013,73.1,178
12,2013,72.8,243
13,2013,71.6,233
14,2013,73.1,495
15,2013,73.7,243
16,2013,80.3,214
17,2013,71.1,205
18,2013,73.9,190
19,2013,71.3,224
20,2013,70.3,209
21,2013,80.4,287
22,2013,82.3,241
23,2013,71.8,212
24,2013,76.7,195
25,2013,76.2,180
26,2013,71.8,188
27,2013,69.2,220
28,2013,80.1,241
29,2013,65.3,298
30,2013,78.5,226
31,2013,76.4,265
32,2013,69.0,255
33,2013,74.3,468
34,2013,76.6,262
35,2013,73.3,303
36,2013,66.9,249
37,2013,68.2,301
38,2013,70.0,275
39,2013,80.7,585
40,2013,84.8,207
41,2013,73.0,207
42,2013,78.4,189
43,2013,71.4,260
44,2013,74.2,1045
45,2013,75.5,249
46,2013,70.2,280
47,2013,72.6,274
48,2013,72.7,222
49,2013,70.3,213
50,2013,75.9,221
51,2013,72.0,196
1,2014,79.6,237
2,2014,71.2,276
3,2014,67.2,292
4,2014,70.1,245
5,2014,80.7,300
6,2014,74.3,320
7,2014,79.0,237
8,2014,76.1,258
9,2014,72.8,280
10,2014,76.8,227
11,2014,76.4,270
12,2014,75.0,250
13,2014,67.2,235
14,2014,75.6,583
15,2014,70.5,309
16,2014,73.3,197
17,2014,76.7,234
18,2014,74.3,220
19,2014,76.4,270
20,2014,87.3,239
21,2014,77.8,303
22,2014,78.7,237
23,2014,68.7,245
24,2014,72.8,199
25,2014,72.6,205
26,2014,71.4,272
27,2014,72.3,220
28,2014,81.3,239
29,2014,71.4,297
30,2014,83.9,248
31,2014,71.9,262
32,2014,77.8,280
33,2014,72.6,466
34,2014,83.0,269
35,2014,73.0,334
36,2014,73.6,231
37,2014,75.9,247
38,2014,68.1,239
39,2014,80.2,644
40,2014,77.9,207
41,2014,76.9,249
42,2014,79.5,199
43,2014,72.6,273
44,2014,66.5,1299
45,2014,74.6,263
46,2014,73.7,246
47,2014,79.3,286
48,2014,67.8,238
49,2014,68.5,259
50,2014,72.3,240
51,2014,64.7,218
1,2015,73.0,272
2,2015,70.0,295
3,2015,75.3,266
4,2015,68.5,229
5,2015,76.7,345
6,2015,78.4,246
7,2015,83.7,250
8,2015,79.9,232
9,2015,76.9,321
10,2015,71.7,273
11,2015,77.4,286
12,2015,76.1,261
13,2015,73.7,209
14,2015,76.0,559
15,2015,78.3,231
16,2015,80.9,279
17,2015,78.2,228
18,2015,76.6,241
19,2015,73.1,223
20,2015,74.1,221
21,2015,79.0,361
22,2015,81.9,307
23,2015,72.2,254
24,2015,75.3,289
25,2015,71.3,233
26,2015,76.0,226
27,2015,71.2,251
28,2015,78.1,231
29,2015,74.9,214
30,2015,77.7,195
31,2015,81.8,272
32,2015,71.2,244
33,2015,75.1,566
34,2015,80.0,261
35,2015,80.6,234
36,2015,71.5,219
37,2015,78.4,220
38,2015,70.4,192
39,2015,73.9,575
40,2015,78.3,272
41,2015,70.1,259
42,2015,77.6,219
43,2015,71.2,210
44,2015,73.7,1500
45,2015,73.6,247
46,2015,76.7,262
47,2015,67.5,373
48,2015,78.9,309
49,2015,65.2,241
50,2015,72.3,245
51,2015,74.1,219
1,2016,78.5,249
2,2016,72.6,288
3,2016,73.1,230
4,2016,70.7,229
5,2016,69.7,328
6,2016,77.1,238
7,2016,78.2,267
8,2016,81.1,222
9,2016,70.9,309
10,2016,69.9,273
11,2016,80.9,274
12,2016,77.3,266
13,2016,75.2,225
14,2016,74.9,494
15,2016,72.0,239
16,2016,76.0,298
17,2016,78.2,207
18,2016,75.6,243
19,2016,70.1,244
20,2016,72.7,260
21,2016,77.5,372
22,2016,87.5,312
23,2016,70.4,230
24,2016,78.1,279
25,2016,73.1,239
26,2016,72.0,215
27,2016,65.4,246
28,2016,83.1,219
29,2016,72.0,202
30,2016,82.5,238
31,2016,75.6,268
32,2016,73.5,249
33,2016,76.1,546
34,2016,79.7,267
35,2016,72.4,205
36,2016,70.2,221
37,2016,70.3,216
38,2016,60.3,256
39,2016,76.6,567
40,2016,78.2,239
41,2016,73.5,282
42,2016,72.8,262
43,2016,70.8,237
44,2016,72.2,1305
45,2016,73.6,252
46,2016,79.0,287
47,2016,73.9,368
48,2016,76.2,320
49,2016,67.9,235
50,2016,80.5,221
51,2016,66.4,250
1,2017,74.5,295
2,2017,70.8,251
3,2017,70.3,265
4,2017,71.0,258
5,2017,72.0,324
6,2017,71.8,264
7,2017,78.9,266
8,2017,79.2,232
9,2017,75.9,269
10,2017,78.3,314
11,2017,69.1,299
12,2017,71.9,236
13,2017,72.5,198
14,2017,78.0,473
15,2017,68.3,256
16,2017,75.6,226
17,2017,70.6,192
18,2017,73.8,229
19,2017,74.0,282
20,2017,76.8,271
21,2017,77.4,361
22,2017,82.8,271
23,2017,71.0,237
24,2017,69.7,249
25,2017,72.1,247
26,2017,72.1,229
27,2017,69.2,216
28,2017,79.9,246
29,2017,75.0,235
30,2017,79.6,236
31,2017,72.2,356
32,2017,75.9,233
33,2017,70.2,543
34,2017,73.6,298
35,2017,82.4,222
36,2017,70.0,279
37,2017,71.4,219
38,2017,74.9,254
39,2017,72.3,543
40,2017,76.9,249
41,2017,70.5,238
42,2017,75.5,244
43,2017,82.0,272
44,2017,70.3,1545
45,2017,70.2,249
46,2017,74.2,251
47,2017,81.0,356
48,2017,72.5,272
49,2017,75.8,298
50,2017,73.0,218
51,2017,72.2,267
