﻿,School Assessment - MMR Vaccination,,,,,,School Assessment - DTP/DTaP/DT Vaccination,,,,,,School Assessment - 1 dose Varicella Vaccination (unknown disease history),,,,,,School Assessment - 2 doses Varicella Vaccination (unknown disease history),,,,,,School Assessment - Hepatitis B Vaccination,,,,,,School Assessment - Polio Vaccination,,,,,
,All kindergartners,,,,,,All kindergartners,,,,,,All kindergartners,,,,,,All kindergartners,,,,,,All kindergartners,,,,,,All kindergartners,,,,,
Names,2017-18,FOOTNOTES,SURVEY TYPE,TOTAL KINDERGARTEN POPULATION,PERCENT SURVEYED,TARGET,2017-18,FOOTNOTES,SURVEY TYPE,TOTAL KINDERGARTEN POPULATION,PERCENT SURVEYED,TARGET,2017-18,FOOTNOTES,SURVEY TYPE,TOTAL KINDERGARTEN POPULATION,PERCENT SURVEYED,TARGET,2017-18,FOOTNOTES,SURVEY TYPE,TOTAL KINDERGARTEN POPULATION,PERCENT SURVEYED,TARGET,2017-18,FOOTNOTES,SURVEY TYPE,TOTAL KINDERGARTEN POPULATION,PERCENT SURVEYED,TARGET,2017-18,FOOTNOTES,SURVEY TYPE,TOTAL KINDERGARTEN POPULATION,PERCENT SURVEYED,TARGET
Alabama,92.7,≥.*,Census,57245,100.0,95.0,92.7,≥.*,Census,57245,100.0,95.0,92.7,≥.*,Census,57245,100.0,95.0,NReq,≥.*,Census,57245,100.0,95.0,NReq,≥.*,Census,57245,100.0,95.0,92.7,≥.*,Census,57245,100.0,95.0
Alaska,91.6,†.§,Stratified 2-stage cluster sample,9692,7.3,95.0,91.1,†.§,Stratified 2-stage cluster sample,9692,7.3,95.0,NA,†.§,Stratified 2-stage cluster sample,9692,7.3,95.0,91.3,†.§,Stratified 2-stage cluster sample,9692,7.3,95.0,93.1,†.§,Stratified 2-stage cluster sample,9692,7.3,95.0,92.9,†.§,Stratified 2-stage cluster sample,9692,7.3,95.0
Arizona,93.4,*,Census,81710,100.0,95.0,93.5,*,Census,81710,100.0,95.0,96.2,*,Census,81710,100.0,95.0,NReq,*,Census,81710,100.0,95.0,94.9,*,Census,81710,100.0,95.0,93.9,*,Census,81710,100.0,95.0
Arkansas,91.9,‡,Census (public). voluntary response (private),39630,96.5,95.0,91.3,‡,Census (public). voluntary response (private),39630,96.5,95.0,NA,‡,Census (public). voluntary response (private),39630,96.5,95.0,91.6,‡,Census (public). voluntary response (private),39630,96.5,95.0,93.7,‡,Census (public). voluntary response (private),39630,96.5,95.0,91.3,‡,Census (public). voluntary response (private),39630,96.5,95.0
California,96.9,‡,Census,574702,98.2,95.0,96.4,‡,Census,574702,98.2,95.0,98.2,‡,Census,574702,98.2,95.0,NReq,‡,Census,574702,98.2,95.0,97.6,‡,Census,574702,98.2,95.0,96.8,‡,Census,574702,98.2,95.0
Colorado,88.7,*,Census,65718,100.0,95.0,88.6,*,Census,65718,100.0,95.0,NA,*,Census,65718,100.0,95.0,87.7,*,Census,65718,100.0,95.0,92.0,*,Census,65718,100.0,95.0,88.6,*,Census,65718,100.0,95.0
Connecticut,96.5,*,Census,39174,100.0,95.0,96.5,*,Census,39174,100.0,95.0,NA,*,Census,39174,100.0,95.0,96.3,*,Census,39174,100.0,95.0,97.0,*,Census,39174,100.0,95.0,96.5,*,Census,39174,100.0,95.0
Delaware,96.7,NaN,Stratified 2-stage cluster sample,10988,9.6,95.0,96.9,NaN,Stratified 2-stage cluster sample,10988,9.6,95.0,NA,NaN,Stratified 2-stage cluster sample,10988,9.6,95.0,96.7,NaN,Stratified 2-stage cluster sample,10988,9.6,95.0,97.9,NaN,Stratified 2-stage cluster sample,10988,9.6,95.0,97.1,NaN,Stratified 2-stage cluster sample,10988,9.6,95.0
District of Columbia,81.3,*,Census,8205,100.0,95.0,79.7,*,Census,8205,100.0,95.0,NA,*,Census,8205,100.0,95.0,80.5,*,Census,8205,100.0,95.0,92.0,*,Census,8205,100.0,95.0,83.6,*,Census,8205,100.0,95.0
Florida,93.7,≥.*.§,Census,222397,100.0,95.0,93.7,≥.*.§,Census,222397,100.0,95.0,NA,≥.*.§,Census,222397,100.0,95.0,93.7,≥.*.§,Census,222397,100.0,95.0,93.7,≥.*.§,Census,222397,100.0,95.0,93.7,≥.*.§,Census,222397,100.0,95.0
Georgia,93.4,≥.*,Census,131459,100.0,95.0,93.4,≥.*,Census,131459,100.0,95.0,NA,≥.*,Census,131459,100.0,95.0,93.4,≥.*,Census,131459,100.0,95.0,93.4,≥.*,Census,131459,100.0,95.0,93.4,≥.*,Census,131459,100.0,95.0
Hawaii,95.6,NaN,Stratified 2-stage cluster sample,16325,6.4,95.0,95.4,NaN,Stratified 2-stage cluster sample,16325,6.4,95.0,96.2,NaN,Stratified 2-stage cluster sample,16325,6.4,95.0,NReq,NaN,Stratified 2-stage cluster sample,16325,6.4,95.0,96.0,NaN,Stratified 2-stage cluster sample,16325,6.4,95.0,95.3,NaN,Stratified 2-stage cluster sample,16325,6.4,95.0
Idaho,89.5,NaN,Census,22553,99.6,95.0,89.3,NaN,Census,22553,99.6,95.0,NA,NaN,Census,22553,99.6,95.0,88.6,NaN,Census,22553,99.6,95.0,92.1,NaN,Census,22553,99.6,95.0,89.9,NaN,Census,22553,99.6,95.0
Illinois,95.2,*,Census,144858,100.0,95.0,95.3,*,Census,144858,100.0,95.0,NA,*,Census,144858,100.0,95.0,94.8,*,Census,144858,100.0,95.0,NReq,*,Census,144858,100.0,95.0,95.1,*,Census,144858,100.0,95.0
Indiana,90.4,NaN,Voluntary Response,84296,84.1,95.0,94.3,NaN,Voluntary Response,84296,84.1,95.0,NA,NaN,Voluntary Response,84296,84.1,95.0,90.2,NaN,Voluntary Response,84296,84.1,95.0,92.8,NaN,Voluntary Response,84296,84.1,95.0,92.7,NaN,Voluntary Response,84296,84.1,95.0
Iowa,93.0,≥.*,Census,39632,100.0,95.0,93.0,≥.*,Census,39632,100.0,95.0,NA,≥.*,Census,39632,100.0,95.0,93.0,≥.*,Census,39632,100.0,95.0,93.0,≥.*,Census,39632,100.0,95.0,93.0,≥.*,Census,39632,100.0,95.0
Kansas,89.1,†.‡.§,Stratified 2-stage cluster sample,38484,22.7,95.0,89.5,†.‡.§,Stratified 2-stage cluster sample,38484,22.7,95.0,NA,†.‡.§,Stratified 2-stage cluster sample,38484,22.7,95.0,88.3,†.‡.§,Stratified 2-stage cluster sample,38484,22.7,95.0,96.4,†.‡.§,Stratified 2-stage cluster sample,38484,22.7,95.0,88.8,†.‡.§,Stratified 2-stage cluster sample,38484,22.7,95.0
Kentucky,92.6,‡.§,Census,55152,91.6,95.0,93.7,‡.§,Census,55152,91.6,95.0,NA,‡.§,Census,55152,91.6,95.0,91.7,‡.§,Census,55152,91.6,95.0,94.0,‡.§,Census,55152,91.6,95.0,94.0,‡.§,Census,55152,91.6,95.0
Louisiana,96.1,*,Census,58277,100.0,95.0,97.7,*,Census,58277,100.0,95.0,NA,*,Census,58277,100.0,95.0,95.6,*,Census,58277,100.0,95.0,98.4,*,Census,58277,100.0,95.0,95.8,*,Census,58277,100.0,95.0
Maine,94.3,NaN,Census ,13255,94.5,95.0,95.3,NaN,Census ,13255,94.5,95.0,96.5,NaN,Census ,13255,94.5,95.0,NReq,NaN,Census ,13255,94.5,95.0,NReq,NaN,Census ,13255,94.5,95.0,95.3,NaN,Census ,13255,94.5,95.0
Maryland,98.6,‡,Census,68528,98.9,95.0,99.0,‡,Census,68528,98.9,95.0,NA,‡,Census,68528,98.9,95.0,98.6,‡,Census,68528,98.9,95.0,99.0,‡,Census,68528,98.9,95.0,99.2,‡,Census,68528,98.9,95.0
Massachusetts,96.3,*.‡,Census,63377,100.0,95.0,96.4,*.‡,Census,63377,100.0,95.0,NA,*.‡,Census,63377,100.0,95.0,96.0,*.‡,Census,63377,100.0,95.0,97.3,*.‡,Census,63377,100.0,95.0,96.3,*.‡,Census,63377,100.0,95.0
Michigan,95.0,*,Census,119028,100.0,95.0,95.3,*,Census,119028,100.0,95.0,NA,*,Census,119028,100.0,95.0,94.7,*,Census,119028,100.0,95.0,96.4,*,Census,119028,100.0,95.0,95.7,*,Census,119028,100.0,95.0
Minnesota,92.5,§,Census,69807,96.5,95.0,92.8,§,Census,69807,96.5,95.0,NA,§,Census,69807,96.5,95.0,92.2,§,Census,69807,96.5,95.0,95.0,§,Census,69807,96.5,95.0,93.0,§,Census,69807,96.5,95.0
Mississippi,99.4,≥.*,Census,39284,100.0,95.0,99.4,≥.*,Census,39284,100.0,95.0,NA,≥.*,Census,39284,100.0,95.0,99.4,≥.*,Census,39284,100.0,95.0,99.4,≥.*,Census,39284,100.0,95.0,99.4,≥.*,Census,39284,100.0,95.0
Missouri,95.2,*,Census,73113,100.0,95.0,95.3,*,Census,73113,100.0,95.0,NA,*,Census,73113,100.0,95.0,95.0,*,Census,73113,100.0,95.0,96.5,*,Census,73113,100.0,95.0,95.5,*,Census,73113,100.0,95.0
Montana,93.2,*,Census,12188,100.0,95.0,92.6,*,Census,12188,100.0,95.0,NA,*,Census,12188,100.0,95.0,91.6,*,Census,12188,100.0,95.0,NReq,*,Census,12188,100.0,95.0,93.8,*,Census,12188,100.0,95.0
Nebraska,96.2,‡,Census,26313,98.0,95.0,96.7,‡,Census,26313,98.0,95.0,NA,‡,Census,26313,98.0,95.0,95.5,‡,Census,26313,98.0,95.0,97.1,‡,Census,26313,98.0,95.0,96.7,‡,Census,26313,98.0,95.0
Nevada,93.0,NaN,Stratified 2-stage cluster sample,37178,4.8,95.0,92.6,NaN,Stratified 2-stage cluster sample,37178,4.8,95.0,NA,NaN,Stratified 2-stage cluster sample,37178,4.8,95.0,92.6,NaN,Stratified 2-stage cluster sample,37178,4.8,95.0,96.4,NaN,Stratified 2-stage cluster sample,37178,4.8,95.0,93.8,NaN,Stratified 2-stage cluster sample,37178,4.8,95.0
New Hampshire,92.4,≥,Census,12165,98.1,95.0,92.4,≥,Census,12165,98.1,95.0,NA,≥,Census,12165,98.1,95.0,92.4,≥,Census,12165,98.1,95.0,92.4,≥,Census,12165,98.1,95.0,92.4,≥,Census,12165,98.1,95.0
New Jersey,96.1,≥.*,Census,107630,100.0,95.0,96.1,≥.*,Census,107630,100.0,95.0,96.1,≥.*,Census,107630,100.0,95.0,NReq,≥.*,Census,107630,100.0,95.0,96.1,≥.*,Census,107630,100.0,95.0,96.1,≥.*,Census,107630,100.0,95.0
New Mexico,94.8,NaN,Stratified 2-stage cluster sample,26896,4.7,95.0,94.9,NaN,Stratified 2-stage cluster sample,26896,4.7,95.0,NA,NaN,Stratified 2-stage cluster sample,26896,4.7,95.0,94.5,NaN,Stratified 2-stage cluster sample,26896,4.7,95.0,96.0,NaN,Stratified 2-stage cluster sample,26896,4.7,95.0,94.8,NaN,Stratified 2-stage cluster sample,26896,4.7,95.0
New York,97.2,*,Census,226456,100.0,95.0,96.9,*,Census,226456,100.0,95.0,NA,*,Census,226456,100.0,95.0,96.9,*,Census,226456,100.0,95.0,98.0,*,Census,226456,100.0,95.0,97.0,*,Census,226456,100.0,95.0
North Carolina,97.0,‡.§,Census,127197,95.0,95.0,96.8,‡.§,Census,127197,95.0,95.0,NA,‡.§,Census,127197,95.0,95.0,96.8,‡.§,Census,127197,95.0,95.0,98.2,‡.§,Census,127197,95.0,95.0,97.0,‡.§,Census,127197,95.0,95.0
North Dakota,94.2,NaN,Census,10365,99.3,95.0,94.1,NaN,Census,10365,99.3,95.0,NA,NaN,Census,10365,99.3,95.0,93.9,NaN,Census,10365,99.3,95.0,95.8,NaN,Census,10365,99.3,95.0,94.4,NaN,Census,10365,99.3,95.0
Ohio,92.1,NaN,Census,138753,95.7,95.0,92.1,NaN,Census,138753,95.7,95.0,NA,NaN,Census,138753,95.7,95.0,91.5,NaN,Census,138753,95.7,95.0,95.2,NaN,Census,138753,95.7,95.0,92.3,NaN,Census,138753,95.7,95.0
Oklahoma,92.6,§,Census (public). voluntary response (private),53898,89.9,95.0,93.9,§,Census (public). voluntary response (private),53898,89.9,95.0,96.8,§,Census (public). voluntary response (private),53898,89.9,95.0,NReq,§,Census (public). voluntary response (private),53898,89.9,95.0,94.1,§,Census (public). voluntary response (private),53898,89.9,95.0,93.7,§,Census (public). voluntary response (private),53898,89.9,95.0
Oregon,93.2,*.‡,Census,45818,100.0,95.0,92.4,*.‡,Census,45818,100.0,95.0,94.4,*.‡,Census,45818,100.0,95.0,NReq,*.‡,Census,45818,100.0,95.0,93.3,*.‡,Census,45818,100.0,95.0,92.7,*.‡,Census,45818,100.0,95.0
Pennsylvania,96.7,NaN,Voluntary response,141571,87.1,95.0,97.0,NaN,Voluntary response,141571,87.1,95.0,NA,NaN,Voluntary response,141571,87.1,95.0,97.0,NaN,Voluntary response,141571,87.1,95.0,97.4,NaN,Voluntary response,141571,87.1,95.0,96.5,NaN,Voluntary response,141571,87.1,95.0
Rhode Island,96.4,*.‡.§,Census,11025,100.0,95.0,96.2,*.‡.§,Census,11025,100.0,95.0,NA,*.‡.§,Census,11025,100.0,95.0,96.0,*.‡.§,Census,11025,100.0,95.0,97.6,*.‡.§,Census,11025,100.0,95.0,96.3,*.‡.§,Census,11025,100.0,95.0
South Carolina,96.3,NaN,Stratified 1-stage cluster sample,58458,27.7,95.0,96.6,NaN,Stratified 1-stage cluster sample,58458,27.7,95.0,NA,NaN,Stratified 1-stage cluster sample,58458,27.7,95.0,96.1,NaN,Stratified 1-stage cluster sample,58458,27.7,95.0,96.9,NaN,Stratified 1-stage cluster sample,58458,27.7,95.0,97.0,NaN,Stratified 1-stage cluster sample,58458,27.7,95.0
South Dakota,96.6,NaN,Census,12125,99.9,95.0,95.9,NaN,Census,12125,99.9,95.0,NA,NaN,Census,12125,99.9,95.0,95.8,NaN,Census,12125,99.9,95.0,95.0,NaN,Census,12125,99.9,95.0,96.5,NaN,Census,12125,99.9,95.0
Tennessee,96.9,*.§,Census,78743,100.0,95.0,96.7,*.§,Census,78743,100.0,95.0,NA,*.§,Census,78743,100.0,95.0,96.8,*.§,Census,78743,100.0,95.0,97.1,*.§,Census,78743,100.0,95.0,96.7,*.§,Census,78743,100.0,95.0
Texas,96.9,‡.§,Census,387981,97.4,95.0,96.8,‡.§,Census,387981,97.4,95.0,NA,‡.§,Census,387981,97.4,95.0,96.4,‡.§,Census,387981,97.4,95.0,97.4,‡.§,Census,387981,97.4,95.0,96.9,‡.§,Census,387981,97.4,95.0
Utah,93.4,*,Census,48827,100.0,95.0,93.2,*,Census,48827,100.0,95.0,NA,*,Census,48827,100.0,95.0,93.7,*,Census,48827,100.0,95.0,94.3,*,Census,48827,100.0,95.0,93.5,*,Census,48827,100.0,95.0
Vermont,94.1,*,Census,6255,100.0,95.0,94.0,*,Census,6255,100.0,95.0,NA,*,Census,6255,100.0,95.0,93.2,*,Census,6255,100.0,95.0,95.3,*,Census,6255,100.0,95.0,94.1,*,Census,6255,100.0,95.0
Virginia,95.5,†,Stratified 2-stage cluster sample,100581,4.2,95.0,98.2,†,Stratified 2-stage cluster sample,100581,4.2,95.0,NA,†,Stratified 2-stage cluster sample,100581,4.2,95.0,93.3,†,Stratified 2-stage cluster sample,100581,4.2,95.0,94.9,†,Stratified 2-stage cluster sample,100581,4.2,95.0,93.5,†,Stratified 2-stage cluster sample,100581,4.2,95.0
Washington,90.6,§,Census,85118,94.0,95.0,90.7,§,Census,85118,94.0,95.0,NA,§,Census,85118,94.0,95.0,89.4,§,Census,85118,94.0,95.0,92.5,§,Census,85118,94.0,95.0,89.9,§,Census,85118,94.0,95.0
West Virginia,98.4,¶,Voluntary response,19519,77.5,95.0,98.0,¶,Voluntary response,19519,77.5,95.0,NA,¶,Voluntary response,19519,77.5,95.0,98.1,¶,Voluntary response,19519,77.5,95.0,99.2,¶,Voluntary response,19519,77.5,95.0,98.2,¶,Voluntary response,19519,77.5,95.0
Wisconsin,91.8,†.‡.§,Stratified 2-stage cluster sample,66178,1.8,95.0,96.5,†.‡.§,Stratified 2-stage cluster sample,66178,1.8,95.0,NA,†.‡.§,Stratified 2-stage cluster sample,66178,1.8,95.0,91.2,†.‡.§,Stratified 2-stage cluster sample,66178,1.8,95.0,96.1,†.‡.§,Stratified 2-stage cluster sample,66178,1.8,95.0,92.4,†.‡.§,Stratified 2-stage cluster sample,66178,1.8,95.0
Wyoming,NA,NaN,Not conducted ,NA,NA,95.0,NA,NaN,Not conducted ,NA,NA,95.0,NA,NaN,Not conducted ,NA,NA,95.0,NA,NaN,Not conducted ,NA,NA,95.0,NA,NaN,Not conducted ,NA,NA,95.0,NA,NaN,Not conducted ,NA,NA,95.0
U.S. Median,94.3,NaN,NaN,NaN,NaN,NaN,95.1,NaN,NaN,NaN,NaN,NaN,96.2,NaN,NaN,NaN,NaN,NaN,93.8,NaN,NaN,NaN,NaN,NaN,96.0,NaN,NaN,NaN,NaN,NaN,94.2,NaN,NaN,NaN,NaN,NaN
