"","state","year","cum_score","totnum_urls","totnum_uq_urls","totnum_hashtags","totnum_uq_hashtags","totnum_mentions","totnum_uq_mentions","totnum_n_chars","totnum_n_uq_chars","totnum_n_commas","totnum_n_digits"
"1","Maine",2011,20,1251,1237,804,793,1255,1243,169151,61695,878,1409
"2","California",2011,6967,47726,45344,21227,21154,21720,21688,4694534,1702530,23448,71294
"3","Alabama",2011,527,2973,2871,1774,1770,1623,1607,367346,131114,1752,5476
"4","Arkansas",2011,193,1114,1094,595,591,708,707,134196,47351,621,1437
"5","Texas",2011,5389,17222,16816,8809,8789,9864,9851,2061697,737321,10009,36782
"6","Michigan",2011,940,5049,4832,2243,2237,2596,2594,564752,200367,2615,8252
"7","New Jersey",2011,2258,7279,7002,7775,7674,22268,22103,1106737,456985,3652,12052
"8","United States",2011,12415,108313,107265,93169,93075,15512,15492,10687758,3752039,20788,2940304
"9","Arizona",2011,1411,8437,8159,3303,3299,3027,3027,784421,279338,3759,9224
"10","Nebraska",2011,329,2733,2719,679,677,933,930,244145,88856,1078,2802
"11","Hawaii",2011,756,1760,1726,952,950,496,496,165694,61565,851,1883
"12","Maryland",2011,2458,8756,7960,7006,6881,6408,6297,937145,367995,5854,29137
"13","Indiana",2011,3225,12290,11899,12789,12319,15587,14804,1855487,669995,15488,30322
"14","South Carolina",2011,464,2453,2402,1183,1179,1641,1640,294966,103819,1382,3167
"15","Pennsylvania",2011,4740,12210,11784,8163,8132,4111,4107,1229077,440644,6277,16590
"16","Massachusetts",2011,1891,6871,6680,4631,4618,3717,3715,742541,261985,3970,9386
"17","Oregon",2011,1206,3525,3429,1611,1608,2051,2051,407049,141864,2026,4167
"18","Wisconsin",2011,82,4057,3980,1993,1988,1930,1930,443568,162120,2050,4557
"19","North Carolina",2011,12783,10211,9971,20327,20317,5370,5364,2464862,977270,4670,336081
"20","Virginia",2011,1370,6373,6146,3703,3471,4431,4390,772566,272820,3576,7787
"21","New York",2011,7453,24132,22958,12103,12050,11276,11254,2504122,911770,10667,73133
"22","Colorado",2011,1171,7762,7634,3357,3341,3474,3470,805275,276481,4020,7704
"23","Delaware",2011,-20,803,796,991,989,813,808,110894,40916,574,797
"24","Illinois",2011,645,8693,8289,6202,6193,5679,5669,948306,338731,4454,11937
"25","Minnesota",2011,612,4825,4605,2141,2123,1965,1964,501907,177585,3040,5759
"26","Florida",2011,21866,17590,17138,8119,8078,7520,7507,2706173,967598,8801,291337
"27","Kansas",2011,166,1865,1799,1157,1150,1116,1112,227553,80217,1096,6349
"28","Idaho",2011,133,1424,1341,526,526,1958,1905,173064,63833,1082,2137
"29","Louisiana",2011,126,3153,3074,2055,2048,4520,4503,533232,193232,3093,4410
"30","Georgia",2011,696,8451,8312,4083,3950,5909,5900,997549,361820,4521,10585
"31","Iowa",2011,331,1755,1707,989,987,746,746,181107,64963,825,1921
"32","Mississippi",2011,162,1203,1173,486,480,955,955,188478,64414,939,2436
"33","Ohio",2011,5663,6682,6486,2634,2624,3686,3677,1571443,602379,4135,203553
"34","Tennessee",2011,758,4708,4511,2359,2358,2269,2268,540403,188381,2469,9758
"35","Montana",2011,20,812,791,250,250,247,247,76449,26812,359,790
"36","Connecticut",2011,510,2722,2643,903,899,1768,1763,313585,109404,1556,2935
"37","Washington",2011,2211,7786,7136,3749,3735,3979,3976,772196,270134,3742,7845
"38","West Virginia",2011,107,686,678,247,246,430,428,80664,28505,394,1014
"39","New Mexico",2011,140,1581,1529,662,656,416,415,153791,52249,749,1686
"40","Nevada",2011,829,3776,3629,817,811,1108,1106,349533,128814,1617,4626
"41","Wyoming",2011,24,344,338,183,183,134,134,36191,12528,188,437
"42","Kentucky",2011,255,1985,1877,736,734,1076,1076,220931,78306,1097,2323
"43","Oklahoma",2011,249,2261,2209,1432,1426,1304,1301,292746,101956,1356,3329
"44","Missouri",2011,856,3504,3414,2062,2048,1832,1828,404363,142049,1715,5817
"45","Alaska",2011,443,1034,1019,624,622,236,235,95354,37038,314,10921
"46","North Dakota",2011,183,610,596,238,234,141,141,58297,19809,243,1039
"47","Utah",2011,-712,2218,2114,897,894,847,846,251743,88081,930,18713
"48","Vermont",2011,165,674,632,392,392,245,245,61954,22028,280,715
"49","Rhode Island",2011,125,526,492,398,395,284,283,55207,19464,285,690
"50","New Hampshire",2011,163,741,683,266,265,371,371,77835,27463,331,1154
"51","South Dakota",2011,-44,348,342,124,122,147,147,38104,13241,188,385
"52","United States",2010,-1571,30644,30224,17346,17293,3256,3248,2807650,984242,9209,468850
"53","New York",2010,-936,8074,7569,3331,3321,3979,3973,870267,313165,4744,21407
"54","California",2010,-3356,23702,22661,7480,7453,8254,8243,2234585,817964,11728,36248
"55","North Carolina",2010,3760,3728,3629,3673,3667,1600,1598,937774,355561,1866,138775
"56","Utah",2010,-85,706,689,147,147,279,278,72844,25302,346,696
"57","Connecticut",2010,150,984,962,327,327,468,467,114014,39466,618,1324
"58","New Jersey",2010,114,2463,2378,2799,2705,8691,8598,392230,155427,1500,4334
"59","Nevada",2010,65,1818,1766,262,259,510,509,176757,62246,914,2649
"60","Colorado",2010,-121,3383,3318,2030,2005,2817,2812,413496,145290,2151,4489
"61","Massachusetts",2010,159,2137,2089,1136,1135,1239,1237,251296,87466,1391,2925
"62","Pennsylvania",2010,225,3669,3569,1165,1159,1378,1376,413422,145380,2278,7571
"63","Virginia",2010,166,2222,2092,1055,1052,1407,1404,249344,88265,1210,7627
"64","Florida",2010,-442,8995,8650,2302,2290,2814,2787,874531,310662,4275,12086
"65","Washington",2010,-128,3186,2865,1444,1425,1694,1692,325237,112889,1732,3852
"66","Illinois",2010,-307,3036,2923,1006,1004,1680,1674,341665,118076,1649,4265
"67","Alaska",2010,41,217,215,77,77,63,62,22511,8023,174,964
"68","Texas",2010,-149,6328,6117,2492,2485,3223,3219,752980,262984,3914,9031
"69","Nebraska",2010,69,375,365,98,98,204,204,52332,17295,328,618
"70","Alabama",2010,-85,946,906,504,501,498,497,115858,40395,546,1610
"71","Louisiana",2010,-245,1255,1208,509,509,1118,1117,181956,64618,936,1969
"72","Michigan",2010,44,2418,2348,929,927,1060,1057,279524,96974,1391,3735
"73","Indiana",2010,-465,2912,2789,1887,1877,4733,4666,468712,171979,2708,4028
"74","Mississippi",2010,62,334,324,160,159,205,205,54209,17760,247,504
"75","Maryland",2010,25,3305,2539,856,851,1049,1049,273368,95359,1478,3418
"76","Georgia",2010,-6324,13214,13163,1645,1632,3473,3381,1053940,402457,4483,13851
"77","Oregon",2010,159,1504,1430,645,641,868,866,180304,62961,911,1884
"78","New Mexico",2010,-56,542,509,205,203,178,178,52260,17922,269,664
"79","Wisconsin",2010,-118,1395,1360,466,466,701,700,152461,53990,751,1707
"80","Maine",2010,-110,374,368,172,172,414,412,55855,19444,296,462
"81","Idaho",2010,-189,688,633,210,210,1099,1063,80234,31392,547,830
"82","Missouri",2010,-94,1285,1189,533,495,744,742,146532,51147,722,2069
"83","Tennessee",2010,62,1534,1461,837,837,784,783,181099,62439,888,1610
"84","Hawaii",2010,-148,706,699,617,617,251,251,72800,25116,263,1047
"85","Arizona",2010,-170,3031,2969,652,646,1123,1122,308459,105964,1407,4415
"86","Kentucky",2010,-73,861,833,121,119,277,274,95957,32620,520,1232
"87","Minnesota",2010,56,2461,2420,881,879,610,609,249218,91613,1190,11227
"88","Oklahoma",2010,-221,993,967,634,629,513,511,113787,39863,555,1248
"89","Iowa",2010,-77,766,743,267,267,208,207,80247,28133,432,892
"90","North Dakota",2010,-39,215,207,23,23,38,38,22336,7617,139,925
"91","Arkansas",2010,-28,411,389,107,107,205,203,47092,16261,220,552
"92","Delaware",2010,-56,270,266,298,298,191,191,34210,12120,151,228
"93","Montana",2010,-7,342,332,65,65,114,114,30067,11150,161,355
"94","Ohio",2010,3061,2865,2656,735,727,1608,1573,941227,370444,1732,158395
"95","Kansas",2010,-15,731,690,467,466,456,456,83576,28979,454,1769
"96","South Carolina",2010,-188,1011,968,493,488,742,741,117046,40610,567,1518
"97","West Virginia",2010,-30,311,302,39,38,88,88,34031,11201,163,386
"98","New Hampshire",2010,8,204,187,57,57,140,140,24435,8704,125,297
"99","South Dakota",2010,-8,96,88,25,25,42,42,11508,4119,65,171
"100","Rhode Island",2010,8,149,144,96,96,133,132,19075,6728,124,252
"101","Vermont",2010,25,397,382,246,246,101,100,38095,13334,187,351
"102","Wyoming",2010,54,197,194,12,12,31,31,17439,6391,102,426
"103","South Carolina",2014,-211,267,246,153,153,136,136,27471,9857,151,341
"104","Kentucky",2014,-203,207,197,130,130,120,120,23421,8369,105,287
"105","Ohio",2014,-2131,2136,1648,1385,1385,1357,1356,170767,64347,2417,2360
"106","Virginia",2014,-597,663,628,608,607,341,341,78107,27249,413,721
"107","Pennsylvania",2014,-1370,1464,1409,891,891,644,644,136472,48754,582,1207
"108","United States",2014,-2616,3885,3620,4460,4455,1342,1340,334990,119304,1703,3611
"109","South Dakota",2014,-79,87,82,39,39,25,25,7380,2683,28,81
"110","Massachusetts",2014,-1213,1205,1130,700,699,564,564,110566,39667,500,895
"111","Oregon",2014,-537,486,476,322,282,224,224,57448,19322,323,567
"112","Nevada",2014,-403,574,561,640,640,165,165,42807,16540,244,351
"113","California",2014,-5991,5919,5587,3549,3535,2787,2786,555123,195657,2742,4951
"114","Texas",2014,-1562,1765,1685,1464,1464,1054,1054,190818,67195,999,1694
"115","Florida",2014,-1022,1396,1339,850,848,514,511,131996,46753,703,1492
"116","New York",2014,-2608,2621,2507,2247,2244,1679,1679,258019,92870,1397,2634
"117","Mississippi",2014,-123,98,88,44,44,46,46,10504,3444,56,111
"118","Washington",2014,-690,801,773,655,654,468,468,97156,32597,581,991
"119","North Carolina",2014,-581,780,725,810,805,561,561,88735,30723,489,870
"120","Alabama",2014,-256,270,263,191,163,92,91,25939,9348,127,198
"121","Indiana",2014,-1013,1306,1241,864,864,569,566,146567,47297,1079,1221
"122","West Virginia",2014,-97,140,132,50,50,32,32,13100,4799,56,130
"123","Arizona",2014,-577,547,524,585,583,320,320,65028,22812,429,1047
"124","Tennessee",2014,-27,715,693,1663,1663,602,602,60328,24909,250,427
"125","Vermont",2014,-134,240,233,119,119,70,70,20553,7029,92,264
"126","Georgia",2014,-796,852,832,971,968,376,376,95108,32337,580,1024
"127","Missouri",2014,-546,608,579,357,357,228,228,57578,19883,297,348
"128","New Jersey",2014,-551,804,768,652,649,247,245,72108,25960,275,1362
"129","Idaho",2014,-161,216,206,117,116,110,110,21432,7425,140,160
"130","Colorado",2014,-490,500,481,377,377,338,338,62228,20803,335,465
"131","New Mexico",2014,-131,129,126,124,124,59,59,12468,4528,66,190
"132","Connecticut",2014,-423,369,355,214,214,229,229,36969,13135,198,341
"133","Illinois",2014,-1099,1170,1078,760,759,524,524,108687,39780,535,878
"134","Minnesota",2014,-506,458,439,296,296,264,264,49746,17507,248,419
"135","Michigan",2014,-911,881,837,533,530,384,383,89679,31280,422,749
"136","Kansas",2014,-328,350,342,221,220,142,142,35300,12436,179,312
"137","Wisconsin",2014,-349,414,397,200,200,156,156,41672,14685,218,426
"138","Maryland",2014,-1314,1184,1035,699,697,400,399,93032,33704,939,891
"139","New Hampshire",2014,-97,92,88,85,85,41,41,9230,3420,29,65
"140","Delaware",2014,-121,110,110,86,86,34,34,11704,3971,85,112
"141","Louisiana",2014,-356,408,384,151,151,204,204,39924,14505,200,269
"142","Maine",2014,-217,171,158,125,121,102,102,20449,7020,111,179
"143","Iowa",2014,-155,166,159,107,107,114,114,20214,6952,130,153
"144","Utah",2014,-302,266,249,163,162,133,133,28905,9933,176,313
"145","Montana",2014,-174,126,120,70,70,55,55,14312,5040,60,78
"146","Hawaii",2014,-95,101,96,38,38,45,45,9648,3449,55,100
"147","Oklahoma",2014,-256,212,195,85,85,126,126,23307,7972,152,144
"148","Nebraska",2014,-182,156,145,64,64,59,59,16948,5740,78,86
"149","Arkansas",2014,-324,413,375,376,376,68,68,33633,11992,103,292
"150","Rhode Island",2014,-213,138,131,73,72,76,76,12729,4672,42,130
"151","Alaska",2014,-70,78,78,28,28,21,21,7534,2527,35,78
"152","North Dakota",2014,-29,27,22,15,15,17,17,2948,1011,19,18
"153","Wyoming",2014,-35,48,47,18,18,24,24,3158,1263,15,14
"154","California",2013,-2933,3794,3590,2425,2407,1709,1706,367958,130184,1795,3438
"155","Washington",2013,-824,765,729,558,557,502,501,96071,33073,560,1513
"156","Indiana",2013,-967,1235,1183,1102,1102,749,741,150042,50814,892,1306
"157","Florida",2013,-1037,1404,1338,751,747,555,555,128805,46485,651,1342
"158","Michigan",2013,-671,550,537,326,326,349,348,68471,24061,339,628
"159","Illinois",2013,-980,901,870,543,542,500,500,97345,34441,454,1071
"160","United States",2013,-2399,4088,3923,2587,2584,1017,1016,354714,125397,1957,4100
"161","Tennessee",2013,-99,747,722,1653,1651,599,599,62967,26237,226,334
"162","Colorado",2013,-671,630,617,335,334,357,356,72412,24549,402,751
"163","Idaho",2013,-145,137,135,58,58,95,92,15055,5142,73,162
"164","North Carolina",2013,-970,983,949,641,640,422,421,100005,35167,477,950
"165","Louisiana",2013,-457,492,455,223,222,194,194,48012,17271,235,451
"166","New Jersey",2013,-406,980,945,942,940,252,252,90259,33372,360,4683
"167","Texas",2013,-2302,2458,2385,1537,1537,1132,1130,254758,90661,1146,2201
"168","New York",2013,-2120,2136,2099,1612,1609,1226,1226,220431,77929,1177,2094
"169","Georgia",2013,-671,724,706,495,494,376,376,86857,29944,429,951
"170","Virginia",2013,-622,718,692,474,474,485,485,92949,33795,493,731
"171","Connecticut",2013,-232,279,273,214,213,187,187,33470,11274,190,289
"172","Vermont",2013,-229,335,316,79,79,79,79,29975,9818,133,402
"173","Pennsylvania",2013,-876,1020,1006,639,639,598,598,113696,39666,525,1044
"174","Massachusetts",2013,-621,799,779,719,719,597,597,88496,30683,450,1017
"175","Kansas",2013,-209,295,288,183,183,104,104,28507,10370,133,277
"176","Maryland",2013,-446,680,665,455,455,403,402,63148,22684,382,654
"177","South Carolina",2013,-339,384,377,262,258,171,171,42905,15079,200,496
"178","Ohio",2013,-935,837,820,667,667,605,605,92399,33610,412,963
"179","Arkansas",2013,-171,153,148,360,360,97,97,16107,5743,58,139
"180","Kentucky",2013,-259,236,226,167,167,144,144,30639,10768,159,318
"181","Oregon",2013,-597,518,497,284,258,287,285,59245,20202,317,686
"182","Arizona",2013,-717,646,624,369,369,266,265,69793,24124,343,757
"183","Wisconsin",2013,-464,273,267,177,177,209,209,38852,13409,195,354
"184","Alabama",2013,-229,222,213,169,163,118,118,25635,9176,132,237
"185","New Mexico",2013,-161,143,143,141,141,68,68,15743,5344,122,147
"186","Iowa",2013,-173,143,141,109,108,99,99,18596,6615,91,209
"187","Minnesota",2013,-588,421,407,271,271,256,255,56446,19117,335,555
"188","Alaska",2013,-93,79,77,26,26,38,38,7347,2606,52,53
"189","Rhode Island",2013,-200,184,177,65,65,78,78,18194,6338,86,174
"190","Missouri",2013,-419,406,392,296,294,223,223,47331,16478,255,603
"191","Delaware",2013,-60,92,91,70,70,20,20,9344,3222,41,80
"192","Nebraska",2013,-133,90,89,70,69,60,60,14637,4783,82,128
"193","Wyoming",2013,-44,39,38,24,24,19,19,3459,1204,19,34
"194","Nevada",2013,-103,219,217,81,80,69,69,22476,7802,123,287
"195","Mississippi",2013,-133,100,98,56,56,56,56,11776,4228,61,213
"196","Hawaii",2013,-60,99,99,39,39,31,31,8972,3190,32,75
"197","Utah",2013,-257,196,189,174,174,107,107,21978,7746,83,187
"198","Maine",2013,-225,156,155,76,76,110,107,19758,6611,124,131
"199","Oklahoma",2013,-263,220,212,99,99,134,134,25038,8863,147,174
"200","West Virginia",2013,-108,97,91,37,37,36,36,11306,4001,68,91
"201","South Dakota",2013,-62,18,18,7,7,21,21,3234,1108,19,14
"202","Montana",2013,-152,118,112,40,40,39,39,10147,3631,50,44
"203","North Dakota",2013,-34,23,23,20,20,18,18,3652,1288,21,23
"204","New Hampshire",2013,-99,95,93,81,81,101,101,11004,3775,57,180
"205","United States",2012,-2916,6846,6470,2829,2819,1451,1447,531175,193714,1949,4513
"206","New Mexico",2012,-202,217,205,209,207,64,64,21710,7263,96,178
"207","California",2012,-3194,4872,4654,2446,2426,1952,1949,485414,171149,2263,4706
"208","Wisconsin",2012,-1068,864,831,557,554,398,398,106797,37877,375,930
"209","Indiana",2012,-1073,1973,1909,1962,1961,979,971,240991,80395,1623,1862
"210","Tennessee",2012,-176,685,643,1210,1210,551,551,69768,27255,267,420
"211","Kansas",2012,-372,335,325,196,195,168,168,38772,13535,199,253
"212","New Jersey",2012,-585,864,801,667,664,346,346,85694,31003,349,3522
"213","Connecticut",2012,-386,420,405,238,238,252,252,46438,16114,264,457
"214","Minnesota",2012,-996,682,655,364,360,388,388,90066,30613,542,937
"215","Utah",2012,-281,242,236,181,181,144,144,31291,10545,137,282
"216","Illinois",2012,-1150,1120,1041,595,592,615,614,130641,45596,588,1282
"217","Delaware",2012,-82,110,109,108,108,42,42,10371,3977,48,81
"218","North Carolina",2012,-1280,1172,1146,603,599,647,645,133865,47636,608,1247
"219","New York",2012,-2643,2695,2513,1528,1518,1321,1319,281688,102320,1365,3575
"220","Florida",2012,914,4510,4378,10351,10342,3307,3307,326591,140211,1139,1773
"221","Kentucky",2012,-408,327,297,192,190,208,208,40779,14291,207,430
"222","Georgia",2012,-863,887,842,315,314,463,463,107975,37245,536,769
"223","Virginia",2012,-989,924,846,485,481,710,709,131225,48547,729,1093
"224","Maine",2012,-428,280,278,176,176,170,170,35553,12410,201,392
"225","Louisiana",2012,-302,354,341,247,247,311,309,51203,18750,246,420
"226","Texas",2012,-1987,1931,1821,914,908,1243,1242,236137,83697,1172,1882
"227","Washington",2012,-2699,2440,2275,928,927,912,912,237956,80335,1207,2415
"228","Oregon",2012,-598,527,515,299,299,348,348,62862,21383,295,476
"229","Maryland",2012,-651,919,864,725,725,483,480,85979,30514,462,948
"230","Arizona",2012,-699,816,791,311,310,294,294,81909,28822,335,792
"231","Ohio",2012,-1156,667,641,450,442,521,521,109326,40229,501,960
"232","Pennsylvania",2012,-1570,1719,1627,1161,1160,701,701,181245,64173,776,1600
"233","South Carolina",2012,-286,263,252,168,167,194,194,36257,13230,165,405
"234","Massachusetts",2012,-679,907,808,633,631,711,710,104636,36573,500,761
"235","Colorado",2012,-969,933,882,409,408,389,389,94768,32185,481,1020
"236","Idaho",2012,-205,285,224,43,43,110,108,22922,7910,122,225
"237","Vermont",2012,-237,424,409,167,167,85,85,39986,13181,206,462
"238","Missouri",2012,-499,507,489,376,375,312,312,60821,21375,309,561
"239","New Hampshire",2012,-70,60,58,46,46,31,31,7199,2527,37,57
"240","Nevada",2012,-258,366,348,159,159,126,126,38037,13074,247,309
"241","Hawaii",2012,-85,220,213,45,44,45,45,19599,6982,80,188
"242","Alabama",2012,-295,304,275,177,175,196,194,37731,13493,179,330
"243","North Dakota",2012,-102,76,68,27,27,28,28,8060,2708,35,82
"244","Rhode Island",2012,-206,333,242,112,112,85,85,18650,7193,98,192
"245","Alaska",2012,-89,108,106,56,56,45,45,11216,3832,69,99
"246","Michigan",2012,-594,853,830,253,252,335,334,80058,31617,355,789
"247","Montana",2012,-285,282,278,75,74,78,78,22537,8370,103,221
"248","Arkansas",2012,-219,286,251,792,766,157,157,27348,9724,94,225
"249","Mississippi",2012,-183,101,94,57,57,86,86,19511,6621,134,117
"250","Nebraska",2012,-119,173,170,103,103,116,115,23756,8277,102,285
"251","Wyoming",2012,-66,60,58,12,11,9,9,4735,1750,21,36
"252","Iowa",2012,-409,267,256,198,197,181,181,38680,13592,181,266
"253","Oklahoma",2012,-347,242,225,151,149,142,141,33037,11411,162,281
"254","South Dakota",2012,-46,29,29,9,9,14,14,3440,1224,15,21
"255","West Virginia",2012,-137,90,84,53,53,57,57,12725,4536,63,77
"256","California",2009,-3389,8451,8251,2073,2018,3039,3033,863206,327889,4399,19305
"257","Georgia",2009,-1172,1421,1403,262,254,655,654,158488,57511,725,1829
"258","Kentucky",2009,-185,272,245,52,52,127,127,36875,12731,186,510
"259","Michigan",2009,-362,633,626,215,211,358,358,89536,30714,463,955
"260","Massachusetts",2009,-491,777,766,247,241,563,563,113228,38747,595,1301
"261","Colorado",2009,-476,815,793,207,206,594,594,119112,40923,623,1161
"262","Arizona",2009,-406,784,776,139,132,354,354,95819,33680,427,1091
"263","Florida",2009,-1418,2160,2126,579,561,956,954,255999,89958,1279,3551
"264","United States",2009,-4098,5608,5537,1939,1874,1016,1015,492044,183644,2102,8457
"265","Minnesota",2009,-474,597,592,171,170,360,360,86580,29213,450,1023
"266","North Carolina",2009,-494,954,940,287,280,564,563,121322,42228,606,1379
"267","Virginia",2009,-359,934,840,342,337,666,665,119114,41412,500,8608
"268","New Jersey",2009,-343,407,404,143,140,257,257,52030,18670,292,606
"269","Wisconsin",2009,-442,469,457,101,97,307,305,65444,22682,308,887
"270","Iowa",2009,-62,258,256,48,47,124,124,36197,12281,160,391
"271","Pennsylvania",2009,-892,922,916,245,244,527,527,124048,43403,613,1431
"272","South Carolina",2009,-345,382,380,299,297,220,220,49900,17511,272,576
"273","Ohio",2009,-699,1043,960,205,201,663,655,134466,46113,669,1552
"274","Delaware",2009,-38,58,58,21,21,47,47,9216,3058,68,82
"275","Minnesota",2008,-22,41,40,2,2,36,35,8084,2610,61,61
"276","Louisiana",2009,-237,390,386,99,96,374,371,60484,21164,324,676
"277","New York",2009,-1820,2324,2288,684,668,1458,1456,327978,115348,1770,4710
"278","Louisiana",2008,-5,14,14,1,1,8,8,2560,823,27,16
"279","Illinois",2009,-869,976,962,242,239,546,545,130861,45921,707,1375
"280","Ohio",2008,23,39,39,3,3,23,23,8434,2854,71,116
"281","Texas",2009,-2620,2395,2374,826,808,1493,1492,347630,121963,1783,4204
"282","Alabama",2009,-361,280,277,64,64,194,194,47218,16122,241,558
"283","Washington",2009,-276,870,861,359,350,600,599,192265,61528,696,10036
"284","Maryland",2009,-236,949,932,128,125,365,365,107398,37351,552,1588
"285","New Mexico",2009,-109,134,133,28,28,71,71,15705,5516,87,216
"286","North Carolina",2008,11,41,40,3,2,24,24,7844,2675,39,42
"287","United States",2008,-16,162,161,6,6,23,23,14782,5842,89,321
"288","United States",2007,-2,23,23,1,1,1,1,1572,750,1,30
"289","Kansas",2009,-193,293,290,119,118,145,145,38639,13395,169,497
"290","Montana",2009,-27,115,113,17,17,65,65,13062,4410,56,131
"291","Indiana",2009,-489,665,653,222,220,833,832,129198,44285,792,1720
"292","New York",2008,-19,86,86,11,10,61,61,15021,5264,89,111
"293","Wisconsin",2008,-12,21,21,0,0,16,16,5050,1630,34,39
"294","Oregon",2009,-355,421,415,173,173,410,410,77497,26455,428,706
"295","Utah",2009,-257,284,277,57,56,153,153,35596,12269,208,428
"296","Connecticut",2009,-163,325,322,64,64,250,250,45741,15992,223,548
"297","Missouri",2009,-598,538,534,90,89,236,236,64246,23495,284,710
"298","Tennessee",2009,-392,366,357,120,120,336,336,65789,22568,308,733
"299","California",2008,-4,322,303,20,18,187,187,58033,19378,338,555
"300","Idaho",2009,-110,121,121,35,34,102,102,16914,5988,133,157
"301","Hawaii",2009,-174,184,180,68,66,89,89,24608,8677,131,382
"302","Maine",2009,-150,146,146,55,55,145,145,24205,8306,148,267
"303","Nevada",2009,-183,377,375,79,66,178,178,45440,15989,224,610
"304","Arkansas",2009,-149,148,146,58,58,113,113,20984,7106,99,194
"305","Oklahoma",2009,-196,235,220,145,145,153,153,33619,11472,184,442
"306","Alaska",2009,-16,75,74,7,6,32,32,9001,2979,43,88
"307","North Dakota",2009,-75,76,75,23,23,23,23,8553,2949,47,101
"308","Texas",2008,6,88,88,4,4,83,83,22171,7064,138,120
"309","Nebraska",2009,-51,162,160,43,43,77,77,22748,7896,161,302
"310","Illinois",2008,-10,41,41,3,3,32,32,7695,2690,45,65
"311","Rhode Island",2009,-29,71,69,17,17,48,48,8665,3136,49,104
"312","Mississippi",2009,-173,133,131,49,49,82,82,21771,7374,105,199
"313","New Hampshire",2009,-21,53,53,16,16,53,53,9268,3194,40,137
"314","Vermont",2009,-46,66,62,16,15,39,39,9427,3117,45,84
"315","Virginia",2008,-12,51,51,1,1,16,16,7065,2402,39,51
"316","Virginia",2007,4,1,1,0,0,1,1,513,158,4,2
"317","Florida",2008,1,82,82,5,5,30,30,12229,4226,68,115
"318","South Dakota",2009,-11,50,50,13,13,17,17,6609,2342,42,210
"319","Alabama",2008,1,8,8,0,0,7,7,1883,607,14,26
"320","Maryland",2008,128,142,142,2,2,17,17,15452,5361,108,362
"321","Wyoming",2009,-3,34,34,11,10,28,28,4596,1577,27,48
"322","Pennsylvania",2008,-5,35,35,0,0,35,35,8668,2907,38,48
"323","Arizona",2008,28,38,38,1,1,12,12,5357,1822,37,29
"324","Kansas",2008,7,17,16,1,1,5,5,2781,919,10,13
"325","West Virginia",2009,-78,78,77,12,12,26,26,11688,4126,78,187
"326","Indiana",2008,-7,25,25,1,1,23,22,6514,2234,41,46
"327","Michigan",2007,0,1,1,0,0,1,1,399,128,3,0
"328","Nebraska",2008,-5,17,17,0,0,3,3,2133,728,16,15
"329","Iowa",2008,-5,35,35,3,3,5,5,3714,1445,15,51
"330","North Carolina",2007,0,2,2,0,0,1,1,262,103,3,0
"331","Kentucky",2008,-20,32,29,0,0,8,8,2631,978,12,13
"332","Kentucky",2007,-3,7,4,0,0,0,0,237,117,0,0
"333","New York",2007,2,19,19,0,0,1,1,1847,656,7,3
"334","Utah",2008,1,11,11,0,0,6,6,1885,623,11,24
"335","Hawaii",2008,14,7,7,0,0,4,4,1473,486,8,14
"336","Massachusetts",2008,-6,42,42,9,9,28,28,9931,3214,85,98
"337","Wyoming",2008,-2,0,0,0,0,0,0,323,114,3,0
"338","Oregon",2008,34,28,28,5,5,33,33,8640,2774,56,36
"339","Michigan",2008,33,57,56,3,3,27,27,7810,2687,31,50
"340","Idaho",2008,-6,9,9,0,0,2,2,1410,483,5,20
"341","Washington",2008,18,35,35,5,5,34,34,8656,2993,41,66
"342","California",2007,-5,46,28,0,0,4,4,4222,1602,32,60
"343","Missouri",2008,-3,46,46,0,0,8,8,5430,1884,15,55
"344","Vermont",2008,-2,3,3,0,0,0,0,470,180,9,9
"345","Maine",2008,10,5,5,0,0,3,3,755,258,3,1
"346","South Carolina",2008,10,30,30,2,2,12,12,4251,1320,22,30
"347","Tennessee",2008,1,30,30,2,2,10,10,5329,1813,18,37
"348","Colorado",2008,18,62,62,3,3,43,43,10353,3400,54,46
"349","Connecticut",2008,8,14,14,1,1,8,8,2265,758,22,0
"350","Alaska",2008,-3,8,8,0,0,1,1,682,265,1,1
"351","Georgia",2008,18,21,21,0,0,20,20,6039,1978,34,20
"352","Missouri",2007,1,16,16,0,0,0,0,1366,422,5,8
"353","Arkansas",2008,0,3,3,0,0,2,2,475,179,0,0
"354","Mississippi",2008,-1,3,3,0,0,1,1,1050,334,1,4
"355","South Dakota",2008,-4,3,3,0,0,3,3,539,229,2,5
"356","Oklahoma",2008,7,18,18,0,0,9,9,3067,1156,10,19
"357","New Jersey",2008,-5,3,3,0,0,8,8,1740,624,16,11
"358","Arizona",2007,2,12,12,0,0,1,1,1210,461,5,3
"359","New Mexico",2008,-8,3,3,0,0,2,2,838,291,1,3
"360","Oregon",2007,3,3,3,0,0,2,2,725,266,10,4
"361","South Carolina",2007,7,14,14,0,0,0,0,1495,557,6,35
"362","Washington",2007,0,3,3,2,2,3,3,954,325,6,6
"363","Massachusetts",2007,7,6,6,0,0,6,6,1144,373,4,70
"364","Colorado",2007,-7,3,3,1,1,1,1,716,241,9,4
"365","Texas",2007,-5,1,1,3,3,4,4,1854,555,16,31
"366","Rhode Island",2007,1,0,0,0,0,1,1,134,55,0,2
"367","Georgia",2007,-1,0,0,0,0,1,1,348,104,2,0
"368","Pennsylvania",2007,-2,4,4,0,0,3,3,595,222,8,4
"369","Indiana",2007,-5,1,1,0,0,0,0,328,116,6,0
"370","Illinois",2007,1,4,4,0,0,1,1,611,182,3,0
"371","Nevada",2008,5,6,6,1,1,9,9,2169,733,14,27
"372","Delaware",2008,1,3,3,0,0,2,2,386,153,9,4
"373","Florida",2007,2,3,3,0,0,1,1,312,115,2,0
"374","Nebraska",2007,2,0,0,0,0,1,1,138,56,1,0
"375","Connecticut",2007,-2,1,1,0,0,0,0,576,221,5,31
"376","New Jersey",2007,1,0,0,0,0,0,0,84,21,0,0
"377","Minnesota",2007,1,3,3,0,0,0,0,417,134,1,0
"378","New Hampshire",2008,0,5,5,0,0,1,1,809,267,4,9
"379","Vermont",2007,0,1,1,0,0,0,0,145,52,0,0
"380","West Virginia",2008,2,1,1,0,0,1,1,620,183,1,7
"381","North Dakota",2008,7,1,1,0,0,0,0,320,94,1,1
"382","Rhode Island",2008,-1,3,3,1,1,0,0,251,101,3,2
"383","Tennessee",2007,3,1,1,0,0,0,0,296,94,2,3
"384","Ohio",2007,2,1,1,0,0,1,1,555,169,1,5
"385","Hawaii",2007,-1,1,1,0,0,1,1,129,45,3,0
"386","Louisiana",2007,-3,1,1,0,0,1,1,367,118,1,0
"387","Montana",2008,-2,2,2,0,0,2,2,1010,295,8,24
"388","Arkansas",2007,0,0,0,0,0,0,0,82,24,0,0
"389","New Mexico",2007,0,0,0,0,0,0,0,104,26,1,0
"390","Nevada",2007,-1,0,0,0,0,0,0,61,25,0,0
"391","Maryland",2007,2,0,0,0,0,2,2,175,58,0,0
"392","Idaho",2007,0,1,1,0,0,0,0,55,24,0,0
"393","Wisconsin",2007,1,1,1,0,0,0,0,98,25,1,0
"394","New Hampshire",2007,1,0,0,0,0,0,0,78,35,0,4
"395","Kansas",2007,0,0,0,0,0,0,0,64,23,0,0
"396","Alabama",2007,0,0,0,0,0,0,0,71,27,1,0
"397","California",2006,1,0,0,0,0,0,0,84,23,1,0
