State,Year,Insured by Employer,Insured by Medicaid,Insured by Medicare,Uninsured
1,2008,0.518,0.14300000000000002,0.128,0.14
15,2008,0.573,0.11699999999999999,0.115,0.138
45,2008,0.613,0.078,0.079,0.15
28,2008,0.586,0.09300000000000001,0.11599999999999999,0.10800000000000001
37,2008,0.473,0.146,0.11599999999999999,0.192
44,2008,0.47700000000000004,0.131,0.085,0.24100000000000002
29,2008,0.556,0.068,0.09699999999999999,0.217
5,2008,0.498,0.152,0.08800000000000001,0.17800000000000002
30,2008,0.632,0.08900000000000001,0.109,0.11
43,2008,0.519,0.149,0.11800000000000001,0.138
13,2008,0.507,0.10300000000000001,0.109,0.17600000000000002
12,2008,0.612,0.10800000000000001,0.11599999999999999,0.067
42,2008,0.526,0.12300000000000001,0.121,0.114
6,2008,0.5489999999999999,0.087,0.09,0.17
31,2008,0.619,0.10099999999999999,0.109,0.124
32,2008,0.423,0.18600000000000003,0.109,0.21600000000000003
11,2008,0.51,0.133,0.09,0.19
41,2008,0.496,0.135,0.124,0.171
33,2008,0.552,0.172,0.10400000000000001,0.11900000000000001
34,2008,0.502,0.136,0.114,0.162
40,2008,0.591,0.126,0.125,0.105
7,2008,0.628,0.11699999999999999,0.11199999999999999,0.08900000000000001
10,2008,0.45,0.11,0.149,0.209
35,2008,0.5760000000000001,0.083,0.122,0.099
36,2008,0.5820000000000001,0.127,0.12,0.11900000000000001
8,2008,0.573,0.139,0.12300000000000001,0.10800000000000001
39,2008,0.5770000000000001,0.131,0.13,0.096
9,2008,0.544,0.233,0.073,0.081
27,2008,0.478,0.095,0.129,0.18899999999999997
4,2008,0.43700000000000006,0.179,0.135,0.179
14,2008,0.57,0.141,0.10099999999999999,0.129
38,2008,0.5329999999999999,0.098,0.11699999999999999,0.165
50,2008,0.616,0.124,0.114,0.09
2,2008,0.518,0.114,0.059000000000000004,0.20800000000000002
22,2008,0.637,0.157,0.10099999999999999,0.042
26,2008,0.547,0.129,0.121,0.13
21,2008,0.622,0.1,0.098,0.11199999999999999
23,2008,0.564,0.151,0.11699999999999999,0.115
18,2008,0.515,0.156,0.122,0.141
20,2008,0.507,0.19699999999999998,0.125,0.10800000000000001
49,2008,0.49700000000000005,0.152,0.153,0.156
48,2008,0.55,0.12,0.10800000000000001,0.132
17,2008,0.586,0.09300000000000001,0.114,0.126
46,2008,0.5429999999999999,0.2,0.114,0.08900000000000001
47,2008,0.59,0.087,0.10800000000000001,0.11900000000000001
16,2008,0.591,0.11900000000000001,0.124,0.087
3,2008,0.46399999999999997,0.153,0.11800000000000001,0.187
51,2008,0.539,0.10300000000000001,0.111,0.145
25,2008,0.449,0.187,0.111,0.18
24,2008,0.626,0.10800000000000001,0.106,0.086
19,2008,0.46,0.18,0.105,0.179
37,2009,0.452,0.165,0.122,0.187
9,2009,0.511,0.273,0.076,0.071
18,2009,0.485,0.183,0.12300000000000001,0.145
35,2009,0.5770000000000001,0.091,0.125,0.099
21,2009,0.594,0.126,0.099,0.111
20,2009,0.474,0.23,0.126,0.10300000000000001
36,2009,0.546,0.157,0.124,0.12300000000000001
34,2009,0.473,0.161,0.11800000000000001,0.161
19,2009,0.457,0.19699999999999998,0.106,0.17300000000000001
26,2009,0.527,0.146,0.125,0.134
32,2009,0.39399999999999996,0.221,0.115,0.203
15,2009,0.547,0.14300000000000002,0.11699999999999999,0.14
27,2009,0.452,0.11900000000000001,0.136,0.19
25,2009,0.42200000000000004,0.223,0.11199999999999999,0.17600000000000002
28,2009,0.547,0.12300000000000001,0.115,0.11599999999999999
14,2009,0.536,0.17,0.10400000000000001,0.134
29,2009,0.519,0.095,0.10099999999999999,0.22
30,2009,0.614,0.111,0.11699999999999999,0.105
16,2009,0.569,0.14,0.125,0.08800000000000001
24,2009,0.591,0.133,0.111,0.09
23,2009,0.52,0.18100000000000002,0.122,0.124
13,2009,0.475,0.136,0.113,0.16899999999999998
12,2009,0.565,0.14400000000000002,0.122,0.068
31,2009,0.594,0.121,0.111,0.126
17,2009,0.5529999999999999,0.11699999999999999,0.115,0.128
11,2009,0.49200000000000005,0.152,0.092,0.191
33,2009,0.528,0.19899999999999998,0.107,0.115
22,2009,0.605,0.19399999999999998,0.106,0.043
10,2009,0.418,0.145,0.15,0.209
43,2009,0.48,0.184,0.12,0.14300000000000002
1,2009,0.488,0.177,0.126,0.139
7,2009,0.601,0.138,0.11699999999999999,0.08900000000000001
4,2009,0.426,0.205,0.134,0.16699999999999998
40,2009,0.546,0.159,0.122,0.113
49,2009,0.475,0.18600000000000003,0.156,0.142
46,2009,0.515,0.225,0.11900000000000001,0.087
3,2009,0.442,0.195,0.11699999999999999,0.175
45,2009,0.598,0.10099999999999999,0.078,0.14400000000000002
42,2009,0.484,0.14300000000000002,0.125,0.13699999999999998
44,2009,0.457,0.155,0.086,0.239
39,2009,0.552,0.159,0.135,0.098
6,2009,0.526,0.11699999999999999,0.09300000000000001,0.158
51,2009,0.519,0.12,0.11199999999999999,0.155
8,2009,0.5489999999999999,0.17600000000000002,0.127,0.10400000000000001
38,2009,0.495,0.13,0.121,0.174
47,2009,0.568,0.10400000000000001,0.111,0.11900000000000001
5,2009,0.47200000000000003,0.17800000000000002,0.08800000000000001,0.18100000000000002
41,2009,0.466,0.16899999999999998,0.12300000000000001,0.168
48,2009,0.52,0.158,0.105,0.136
2,2009,0.491,0.145,0.063,0.205
50,2009,0.5820000000000001,0.157,0.11800000000000001,0.091
17,2010,0.542,0.11900000000000001,0.11900000000000001,0.13699999999999998
22,2010,0.591,0.205,0.107,0.044000000000000004
45,2010,0.5720000000000001,0.115,0.079,0.155
28,2010,0.53,0.131,0.11699999999999999,0.11900000000000001
13,2010,0.474,0.134,0.11699999999999999,0.179
29,2010,0.494,0.107,0.107,0.226
38,2010,0.47700000000000004,0.146,0.127,0.172
15,2010,0.521,0.14800000000000002,0.125,0.15
14,2010,0.524,0.16899999999999998,0.111,0.14
27,2010,0.45899999999999996,0.128,0.139,0.16899999999999998
49,2010,0.466,0.18899999999999997,0.159,0.146
44,2010,0.447,0.16699999999999998,0.087,0.239
46,2010,0.489,0.24600000000000002,0.129,0.078
26,2010,0.514,0.14800000000000002,0.13,0.133
25,2010,0.40399999999999997,0.23600000000000002,0.115,0.18100000000000002
3,2010,0.433,0.204,0.125,0.17
23,2010,0.506,0.19,0.128,0.124
47,2010,0.551,0.10400000000000001,0.11599999999999999,0.129
24,2010,0.579,0.141,0.11599999999999999,0.09
48,2010,0.51,0.158,0.107,0.142
4,2010,0.413,0.207,0.138,0.175
5,2010,0.45799999999999996,0.19,0.09,0.18600000000000003
9,2010,0.521,0.266,0.081,0.078
50,2010,0.5579999999999999,0.17,0.121,0.096
51,2010,0.537,0.121,0.11,0.147
8,2010,0.523,0.192,0.133,0.1
37,2010,0.44,0.16899999999999998,0.126,0.192
36,2010,0.535,0.162,0.13,0.12300000000000001
10,2010,0.402,0.155,0.152,0.213
39,2010,0.5379999999999999,0.16699999999999998,0.136,0.102
19,2010,0.436,0.215,0.106,0.17800000000000002
35,2010,0.561,0.09,0.13,0.1
40,2010,0.527,0.172,0.124,0.121
20,2010,0.47200000000000003,0.22899999999999998,0.13,0.107
34,2010,0.45299999999999996,0.168,0.12300000000000001,0.17
7,2010,0.579,0.151,0.122,0.091
43,2010,0.47100000000000003,0.188,0.125,0.14400000000000002
41,2010,0.451,0.17300000000000001,0.13,0.177
16,2010,0.5489999999999999,0.155,0.128,0.09300000000000001
33,2010,0.51,0.215,0.10800000000000001,0.12
11,2010,0.474,0.159,0.09699999999999999,0.198
18,2010,0.474,0.18100000000000002,0.127,0.153
1,2010,0.47200000000000003,0.18100000000000002,0.129,0.14800000000000002
42,2010,0.49,0.138,0.122,0.11900000000000001
32,2010,0.392,0.225,0.11699999999999999,0.2
30,2010,0.599,0.107,0.126,0.11199999999999999
31,2010,0.5770000000000001,0.131,0.113,0.133
21,2010,0.574,0.14,0.102,0.114
6,2010,0.514,0.128,0.096,0.158
12,2010,0.551,0.149,0.122,0.077
2,2010,0.511,0.159,0.057999999999999996,0.18100000000000002
22,2011,0.579,0.21600000000000003,0.109,0.042
48,2011,0.501,0.159,0.111,0.141
21,2011,0.579,0.145,0.10400000000000001,0.10300000000000001
50,2011,0.55,0.182,0.12,0.092
20,2011,0.475,0.223,0.134,0.11199999999999999
51,2011,0.536,0.10800000000000001,0.115,0.154
49,2011,0.455,0.196,0.159,0.154
44,2011,0.447,0.172,0.09,0.231
47,2011,0.551,0.10800000000000001,0.11800000000000001,0.125
38,2011,0.47200000000000003,0.165,0.13,0.156
37,2011,0.44799999999999995,0.168,0.131,0.187
36,2011,0.53,0.165,0.132,0.121
39,2011,0.531,0.17,0.138,0.10099999999999999
40,2011,0.536,0.18100000000000002,0.12300000000000001,0.11
35,2011,0.54,0.102,0.132,0.099
34,2011,0.45299999999999996,0.174,0.12300000000000001,0.16399999999999998
33,2011,0.507,0.22399999999999998,0.10800000000000001,0.115
41,2011,0.449,0.17600000000000002,0.135,0.16899999999999998
42,2011,0.502,0.133,0.13699999999999998,0.11599999999999999
32,2011,0.381,0.23800000000000002,0.11699999999999999,0.2
31,2011,0.5760000000000001,0.136,0.114,0.13
43,2011,0.462,0.192,0.127,0.149
30,2011,0.607,0.109,0.129,0.10099999999999999
29,2011,0.486,0.121,0.11,0.22
28,2011,0.53,0.124,0.11800000000000001,0.12
45,2011,0.5770000000000001,0.11699999999999999,0.083,0.151
27,2011,0.451,0.127,0.14,0.188
46,2011,0.511,0.239,0.124,0.073
25,2011,0.40700000000000003,0.23600000000000002,0.114,0.17600000000000002
24,2011,0.578,0.14400000000000002,0.11699999999999999,0.087
23,2011,0.504,0.19699999999999998,0.129,0.11900000000000001
19,2011,0.433,0.214,0.109,0.17600000000000002
26,2011,0.511,0.149,0.132,0.13699999999999998
3,2011,0.424,0.207,0.129,0.172
11,2011,0.469,0.16399999999999998,0.099,0.196
12,2011,0.56,0.14800000000000002,0.122,0.07200000000000001
13,2011,0.47600000000000003,0.147,0.11699999999999999,0.157
5,2011,0.456,0.196,0.091,0.182
4,2011,0.42200000000000004,0.21,0.134,0.17
14,2011,0.525,0.18,0.11199999999999999,0.129
10,2011,0.397,0.165,0.153,0.209
15,2011,0.527,0.154,0.12300000000000001,0.146
7,2011,0.574,0.165,0.12,0.086
16,2011,0.556,0.154,0.127,0.09
2,2011,0.489,0.158,0.068,0.2
8,2011,0.532,0.196,0.136,0.08900000000000001
9,2011,0.53,0.267,0.069,0.076
17,2011,0.537,0.132,0.11599999999999999,0.127
1,2011,0.469,0.183,0.13,0.141
6,2011,0.508,0.13699999999999998,0.1,0.152
18,2011,0.47100000000000003,0.192,0.131,0.145
38,2012,0.473,0.17300000000000001,0.133,0.146
25,2012,0.40299999999999997,0.244,0.11900000000000001,0.171
47,2012,0.546,0.109,0.121,0.125
3,2012,0.42700000000000005,0.195,0.133,0.175
10,2012,0.391,0.174,0.157,0.2
35,2012,0.5710000000000001,0.087,0.12300000000000001,0.107
26,2012,0.496,0.153,0.139,0.139
37,2012,0.444,0.171,0.135,0.184
46,2012,0.495,0.245,0.134,0.066
43,2012,0.469,0.187,0.133,0.139
15,2012,0.524,0.155,0.127,0.145
27,2012,0.424,0.151,0.14300000000000002,0.183
14,2012,0.521,0.177,0.115,0.13
41,2012,0.444,0.184,0.13699999999999998,0.16699999999999998
16,2012,0.545,0.165,0.13,0.084
28,2012,0.551,0.125,0.12,0.111
45,2012,0.59,0.113,0.086,0.14
34,2012,0.445,0.177,0.127,0.165
8,2012,0.52,0.20800000000000002,0.138,0.085
29,2012,0.475,0.12,0.11599999999999999,0.22
13,2012,0.469,0.156,0.12300000000000001,0.16
20,2012,0.462,0.23399999999999999,0.14400000000000002,0.10400000000000001
30,2012,0.581,0.11699999999999999,0.13699999999999998,0.11199999999999999
44,2012,0.447,0.177,0.091,0.225
42,2012,0.504,0.14300000000000002,0.13,0.107
5,2012,0.45399999999999996,0.19899999999999998,0.095,0.179
31,2012,0.568,0.14,0.11699999999999999,0.128
11,2012,0.46799999999999997,0.17300000000000001,0.102,0.18600000000000003
12,2012,0.523,0.172,0.126,0.066
33,2012,0.51,0.22399999999999998,0.11199999999999999,0.11
4,2012,0.42700000000000005,0.207,0.14,0.16399999999999998
36,2012,0.526,0.171,0.13699999999999998,0.11599999999999999
19,2012,0.43,0.223,0.11199999999999999,0.16699999999999998
1,2012,0.47100000000000003,0.192,0.133,0.133
32,2012,0.39799999999999996,0.22699999999999998,0.127,0.188
49,2012,0.478,0.177,0.16399999999999998,0.142
17,2012,0.531,0.133,0.12300000000000001,0.127
23,2012,0.504,0.19399999999999998,0.134,0.11599999999999999
6,2012,0.503,0.146,0.10400000000000001,0.145
18,2012,0.48,0.185,0.134,0.13699999999999998
7,2012,0.56,0.17300000000000001,0.12300000000000001,0.09300000000000001
2,2012,0.494,0.153,0.064,0.203
50,2012,0.5579999999999999,0.166,0.128,0.092
48,2012,0.506,0.155,0.115,0.138
24,2012,0.584,0.14400000000000002,0.122,0.083
40,2012,0.532,0.17800000000000002,0.124,0.114
39,2012,0.535,0.16899999999999998,0.14,0.09699999999999999
51,2012,0.513,0.126,0.11699999999999999,0.161
22,2012,0.579,0.22,0.11199999999999999,0.039
9,2012,0.527,0.271,0.076,0.055999999999999994
21,2012,0.568,0.15,0.109,0.102
16,2013,0.5379999999999999,0.165,0.138,0.08800000000000001
22,2013,0.5770000000000001,0.218,0.113,0.038
45,2013,0.58,0.111,0.08900000000000001,0.134
51,2013,0.561,0.11,0.12,0.128
41,2013,0.447,0.185,0.14300000000000002,0.158
13,2013,0.46399999999999997,0.153,0.126,0.161
30,2013,0.5770000000000001,0.113,0.14300000000000002,0.109
29,2013,0.491,0.124,0.11800000000000001,0.20600000000000002
34,2013,0.441,0.18,0.133,0.157
8,2013,0.507,0.203,0.146,0.10099999999999999
50,2013,0.545,0.174,0.132,0.09
43,2013,0.456,0.19399999999999998,0.135,0.14
38,2013,0.47200000000000003,0.16899999999999998,0.139,0.149
42,2013,0.47700000000000004,0.14800000000000002,0.135,0.125
21,2013,0.562,0.152,0.111,0.102
37,2013,0.445,0.174,0.134,0.17800000000000002
31,2013,0.557,0.14,0.121,0.134
44,2013,0.449,0.172,0.095,0.22
18,2013,0.47600000000000003,0.183,0.13699999999999998,0.145
11,2013,0.462,0.17,0.107,0.188
5,2013,0.45299999999999996,0.20199999999999999,0.098,0.172
35,2013,0.562,0.099,0.122,0.10400000000000001
4,2013,0.41200000000000003,0.213,0.145,0.162
40,2013,0.522,0.171,0.132,0.12
48,2013,0.501,0.154,0.121,0.141
25,2013,0.40299999999999997,0.239,0.124,0.17
19,2013,0.441,0.21600000000000003,0.11199999999999999,0.168
47,2013,0.537,0.111,0.127,0.124
36,2013,0.526,0.172,0.139,0.11
15,2013,0.519,0.155,0.131,0.141
12,2013,0.531,0.162,0.134,0.07
2,2013,0.519,0.138,0.073,0.18600000000000003
10,2013,0.382,0.17300000000000001,0.162,0.201
32,2013,0.365,0.247,0.13,0.192
3,2013,0.428,0.187,0.139,0.174
20,2013,0.45399999999999996,0.225,0.14800000000000002,0.111
6,2013,0.501,0.142,0.111,0.139
1,2013,0.455,0.19,0.142,0.13699999999999998
26,2013,0.503,0.14800000000000002,0.14300000000000002,0.131
17,2013,0.524,0.133,0.127,0.124
27,2013,0.436,0.151,0.151,0.16699999999999998
9,2013,0.518,0.27399999999999997,0.078,0.063
39,2013,0.535,0.165,0.145,0.09699999999999999
7,2013,0.546,0.174,0.127,0.094
23,2013,0.5,0.195,0.13699999999999998,0.111
14,2013,0.519,0.179,0.11800000000000001,0.127
33,2013,0.5,0.22899999999999998,0.114,0.109
24,2013,0.57,0.14400000000000002,0.124,0.083
28,2013,0.541,0.13,0.12300000000000001,0.10800000000000001
49,2013,0.461,0.196,0.172,0.135
46,2013,0.479,0.253,0.146,0.07
11,2014,0.467,0.18,0.111,0.158
42,2014,0.502,0.14300000000000002,0.13,0.1
37,2014,0.45299999999999996,0.17300000000000001,0.13699999999999998,0.152
34,2014,0.445,0.184,0.13699999999999998,0.132
6,2014,0.502,0.17,0.113,0.106
41,2014,0.439,0.195,0.15,0.136
8,2014,0.534,0.184,0.153,0.07400000000000001
10,2014,0.384,0.182,0.166,0.166
36,2014,0.526,0.191,0.145,0.084
7,2014,0.54,0.19399999999999998,0.129,0.07
40,2014,0.505,0.22399999999999998,0.133,0.071
9,2014,0.512,0.289,0.07200000000000001,0.055
39,2014,0.525,0.168,0.149,0.086
33,2014,0.5,0.242,0.11599999999999999,0.086
35,2014,0.575,0.10800000000000001,0.125,0.081
14,2014,0.522,0.18899999999999997,0.121,0.099
5,2014,0.45899999999999996,0.231,0.10099999999999999,0.125
15,2014,0.526,0.159,0.13699999999999998,0.12
47,2014,0.537,0.113,0.129,0.109
25,2014,0.409,0.245,0.125,0.145
48,2014,0.505,0.185,0.125,0.092
16,2014,0.5379999999999999,0.177,0.141,0.057
24,2014,0.5670000000000001,0.163,0.129,0.06
2,2014,0.47700000000000004,0.163,0.069,0.175
23,2014,0.504,0.205,0.14300000000000002,0.084
26,2014,0.508,0.142,0.14800000000000002,0.11599999999999999
49,2014,0.45299999999999996,0.245,0.17800000000000002,0.08900000000000001
17,2014,0.525,0.14400000000000002,0.129,0.106
50,2014,0.55,0.17,0.136,0.07400000000000001
21,2014,0.556,0.174,0.11599999999999999,0.079
18,2014,0.47100000000000003,0.23399999999999999,0.141,0.08800000000000001
51,2014,0.542,0.122,0.115,0.124
20,2014,0.466,0.218,0.152,0.098
1,2014,0.465,0.19399999999999998,0.145,0.12
19,2014,0.449,0.215,0.11800000000000001,0.145
22,2014,0.568,0.22899999999999998,0.11699999999999999,0.034
27,2014,0.441,0.152,0.155,0.13699999999999998
3,2014,0.43200000000000005,0.205,0.145,0.13699999999999998
38,2014,0.457,0.228,0.14300000000000002,0.098
46,2014,0.479,0.257,0.147,0.047
44,2014,0.462,0.172,0.099,0.191
29,2014,0.485,0.16399999999999998,0.124,0.153
12,2014,0.547,0.17,0.13699999999999998,0.049
13,2014,0.465,0.152,0.134,0.134
43,2014,0.455,0.203,0.13699999999999998,0.11900000000000001
45,2014,0.584,0.109,0.091,0.124
28,2014,0.542,0.131,0.124,0.09300000000000001
4,2014,0.42,0.239,0.14800000000000002,0.11800000000000001
32,2014,0.37200000000000005,0.275,0.136,0.14800000000000002
31,2014,0.5579999999999999,0.154,0.12300000000000001,0.11
30,2014,0.583,0.105,0.14800000000000002,0.094
5,2015,0.45799999999999996,0.265,0.10400000000000001,0.085
43,2015,0.467,0.201,0.142,0.10300000000000001
51,2015,0.5429999999999999,0.121,0.128,0.10400000000000001
1,2015,0.466,0.201,0.15,0.102
39,2015,0.527,0.185,0.152,0.063
50,2015,0.561,0.171,0.141,0.057999999999999996
46,2015,0.489,0.259,0.146,0.039
44,2015,0.469,0.175,0.1,0.17
6,2015,0.5,0.192,0.11699999999999999,0.081
49,2015,0.45299999999999996,0.266,0.17600000000000002,0.055
2,2015,0.47600000000000003,0.198,0.075,0.145
7,2015,0.542,0.196,0.129,0.061
48,2015,0.5,0.21100000000000002,0.128,0.065
41,2015,0.452,0.196,0.153,0.10800000000000001
4,2015,0.414,0.256,0.149,0.094
47,2015,0.537,0.121,0.133,0.09300000000000001
42,2015,0.48100000000000004,0.134,0.141,0.11199999999999999
40,2015,0.52,0.228,0.13699999999999998,0.052000000000000005
3,2015,0.433,0.22,0.149,0.111
8,2015,0.516,0.205,0.156,0.055999999999999994
45,2015,0.583,0.111,0.092,0.107
19,2015,0.44799999999999995,0.22699999999999998,0.122,0.121
38,2015,0.45799999999999996,0.239,0.147,0.07
10,2015,0.387,0.188,0.168,0.134
11,2015,0.474,0.17800000000000002,0.114,0.139
33,2015,0.495,0.257,0.11800000000000001,0.071
32,2015,0.363,0.32,0.138,0.109
12,2015,0.545,0.179,0.134,0.038
31,2015,0.5539999999999999,0.174,0.124,0.08800000000000001
30,2015,0.585,0.125,0.154,0.069
13,2015,0.45899999999999996,0.17,0.134,0.113
29,2015,0.47600000000000003,0.18600000000000003,0.132,0.12300000000000001
28,2015,0.5539999999999999,0.129,0.131,0.078
34,2015,0.449,0.185,0.14,0.113
27,2015,0.444,0.152,0.162,0.11599999999999999
26,2015,0.512,0.14800000000000002,0.15,0.098
25,2015,0.405,0.258,0.129,0.125
24,2015,0.563,0.18100000000000002,0.131,0.045
16,2015,0.542,0.182,0.14300000000000002,0.049
23,2015,0.503,0.22699999999999998,0.145,0.06
22,2015,0.5589999999999999,0.23800000000000002,0.12,0.027999999999999997
17,2015,0.542,0.134,0.132,0.09300000000000001
21,2015,0.5589999999999999,0.17600000000000002,0.11800000000000001,0.067
18,2015,0.467,0.258,0.146,0.061
20,2015,0.467,0.2,0.158,0.086
15,2015,0.526,0.16899999999999998,0.14,0.099
35,2015,0.557,0.107,0.129,0.083
14,2015,0.527,0.203,0.125,0.071
36,2015,0.522,0.209,0.146,0.065
37,2015,0.457,0.17300000000000001,0.14300000000000002,0.142
9,2015,0.542,0.265,0.078,0.037000000000000005
15,2016,0.5329999999999999,0.179,0.141,0.081
26,2016,0.517,0.146,0.154,0.09
51,2016,0.521,0.126,0.13,0.11
47,2016,0.54,0.115,0.138,0.08800000000000001
25,2016,0.42200000000000004,0.248,0.133,0.11800000000000001
35,2016,0.556,0.111,0.13,0.078
27,2016,0.434,0.205,0.159,0.084
28,2016,0.55,0.128,0.129,0.08900000000000001
45,2016,0.601,0.11699999999999999,0.09300000000000001,0.085
4,2016,0.42,0.267,0.15,0.08
14,2016,0.531,0.203,0.127,0.065
8,2016,0.525,0.19399999999999998,0.155,0.057999999999999996
46,2016,0.48100000000000004,0.267,0.15,0.036000000000000004
24,2016,0.562,0.179,0.13699999999999998,0.042
3,2016,0.433,0.235,0.151,0.1
48,2016,0.509,0.213,0.13,0.059000000000000004
20,2016,0.479,0.19399999999999998,0.16,0.079
18,2016,0.462,0.267,0.15,0.052000000000000005
38,2016,0.46799999999999997,0.233,0.152,0.062
37,2016,0.45,0.182,0.145,0.138
21,2016,0.557,0.17800000000000002,0.122,0.061
1,2016,0.469,0.201,0.151,0.092
22,2016,0.556,0.239,0.121,0.025
50,2016,0.5579999999999999,0.175,0.14300000000000002,0.052000000000000005
9,2016,0.52,0.285,0.075,0.04
23,2016,0.507,0.226,0.14800000000000002,0.053
17,2016,0.536,0.139,0.134,0.084
49,2016,0.434,0.287,0.182,0.049
16,2016,0.5429999999999999,0.196,0.14400000000000002,0.04
2,2016,0.47,0.193,0.08,0.145
39,2016,0.515,0.19899999999999998,0.155,0.057999999999999996
36,2016,0.523,0.213,0.151,0.055999999999999994
13,2016,0.47200000000000003,0.168,0.138,0.10300000000000001
6,2016,0.505,0.19399999999999998,0.12,0.077
31,2016,0.5589999999999999,0.174,0.128,0.077
11,2016,0.475,0.179,0.11800000000000001,0.129
12,2016,0.5539999999999999,0.17600000000000002,0.139,0.035
40,2016,0.52,0.22,0.141,0.042
19,2016,0.433,0.253,0.127,0.102
44,2016,0.47,0.175,0.102,0.166
7,2016,0.546,0.20199999999999999,0.133,0.049
42,2016,0.527,0.142,0.14,0.083
43,2016,0.466,0.213,0.14300000000000002,0.091
5,2016,0.46299999999999997,0.272,0.106,0.07400000000000001
41,2016,0.45299999999999996,0.201,0.155,0.099
10,2016,0.39299999999999996,0.19,0.172,0.125
30,2016,0.574,0.135,0.159,0.064
29,2016,0.48200000000000004,0.193,0.131,0.111
33,2016,0.49200000000000005,0.264,0.11900000000000001,0.061
32,2016,0.369,0.325,0.141,0.09
34,2016,0.455,0.187,0.14400000000000002,0.105
49,2017,0.429,0.28,0.184,0.057999999999999996
37,2017,0.45299999999999996,0.18,0.147,0.14
42,2017,0.523,0.13699999999999998,0.14400000000000002,0.092
2,2017,0.452,0.22,0.08900000000000001,0.139
11,2017,0.486,0.174,0.11800000000000001,0.134
23,2017,0.514,0.22399999999999998,0.151,0.051
29,2017,0.493,0.18899999999999997,0.136,0.111
50,2017,0.5660000000000001,0.168,0.14800000000000002,0.051
17,2017,0.546,0.135,0.139,0.085
41,2017,0.45299999999999996,0.19,0.161,0.111
39,2017,0.522,0.19699999999999998,0.16,0.055
21,2017,0.562,0.17800000000000002,0.124,0.061
1,2017,0.46,0.20600000000000002,0.157,0.095
18,2017,0.46399999999999997,0.271,0.151,0.055
34,2017,0.46299999999999997,0.184,0.146,0.107
38,2017,0.47100000000000003,0.22899999999999998,0.152,0.068
20,2017,0.49200000000000005,0.18100000000000002,0.16699999999999998,0.078
19,2017,0.435,0.28300000000000003,0.127,0.083
35,2017,0.58,0.107,0.131,0.075
22,2017,0.552,0.23600000000000002,0.125,0.027999999999999997
6,2017,0.508,0.19699999999999998,0.122,0.075
48,2017,0.518,0.20800000000000002,0.133,0.061
33,2017,0.494,0.263,0.122,0.057
13,2017,0.465,0.175,0.14,0.107
44,2017,0.475,0.17,0.10300000000000001,0.174
7,2017,0.5379999999999999,0.203,0.136,0.055999999999999994
45,2017,0.601,0.11199999999999999,0.096,0.09
36,2017,0.521,0.21100000000000002,0.153,0.057999999999999996
4,2017,0.415,0.27,0.155,0.08
10,2017,0.397,0.18600000000000003,0.172,0.129
14,2017,0.534,0.2,0.131,0.069
28,2017,0.556,0.125,0.134,0.086
27,2017,0.436,0.193,0.16399999999999998,0.091
30,2017,0.573,0.138,0.168,0.057
9,2017,0.532,0.281,0.078,0.036000000000000004
24,2017,0.575,0.17300000000000001,0.142,0.045
46,2017,0.46299999999999997,0.281,0.158,0.042
47,2017,0.537,0.11900000000000001,0.139,0.08800000000000001
15,2017,0.529,0.18100000000000002,0.142,0.084
31,2017,0.56,0.171,0.131,0.076
40,2017,0.512,0.23600000000000002,0.139,0.045
25,2017,0.42,0.244,0.134,0.121
12,2017,0.541,0.175,0.147,0.038
3,2017,0.449,0.223,0.153,0.1
43,2017,0.47600000000000003,0.205,0.146,0.094
8,2017,0.531,0.179,0.16699999999999998,0.055999999999999994
32,2017,0.36200000000000004,0.336,0.141,0.091
5,2017,0.47100000000000003,0.264,0.10800000000000001,0.07200000000000001
16,2017,0.5529999999999999,0.18,0.14800000000000002,0.044000000000000004
26,2017,0.515,0.149,0.16,0.091
51,2017,0.521,0.126,0.142,0.12300000000000001
